<?xml version="1.0" standalone="no"?>
<!DOCTYPE svg PUBLIC "-//W3C//DTD SVG 1.1//EN" "http://www.w3.org/Graphics/SVG/1.1/DTD/svg11.dtd" >
<svg xmlns="http://www.w3.org/2000/svg">
<metadata></metadata>
<defs>
<font id="proxima_nova_blblack" horiz-adv-x="573" >
<font-face units-per-em="2048" ascent="1618" descent="-430" />
<missing-glyph horiz-adv-x="522" />
<glyph horiz-adv-x="0" />
<glyph horiz-adv-x="0" />
<glyph horiz-adv-x="682" />
<glyph unicode="&#xd;" horiz-adv-x="0" />
<glyph unicode=" "  horiz-adv-x="522" />
<glyph unicode="&#x09;" horiz-adv-x="522" />
<glyph unicode="&#xa0;" horiz-adv-x="522" />
<glyph unicode="!" d="M68 1366h438l-51 -858h-332zM72 195q0 89 64 154t153 65t153 -65t64 -154q0 -88 -64 -153t-153 -65t-153 65t-64 153z" />
<glyph unicode="&#x22;" horiz-adv-x="960" d="M70 1198q0 78 55.5 133t132.5 55t132.5 -55t55.5 -133q0 -21 -28 -147t-56 -241l-28 -116h-152q-112 457 -112 504zM516 1198q0 78 55.5 133t133.5 55q77 0 131.5 -55t54.5 -133q0 -21 -28.5 -147t-56.5 -241l-28 -116h-149q-113 457 -113 504z" />
<glyph unicode="#" horiz-adv-x="1323" d="M25 324l71 223h180l89 270h-179l70 221h184l109 328h260l-109 -328h160l109 328h260l-111 -328h180l-67 -221h-187l-90 -270h187l-70 -223h-192l-107 -324h-260l109 324h-162l-107 -324h-260l109 324h-176zM537 547h157l90 270h-159z" />
<glyph unicode="$" horiz-adv-x="1300" d="M37 193l215 307q82 -79 195.5 -127.5t244.5 -48.5q65 0 108.5 18t43.5 55q0 21 -26 35t-70 23.5t-101.5 19t-120.5 23.5t-126 33.5t-120.5 53.5t-101.5 79t-70 114.5t-26 155.5q0 164 119.5 290t335.5 154v195h262v-197q251 -35 430 -180l-221 -293q-86 65 -194 100 t-208 35q-104 0 -104 -61q0 -20 26 -35t70 -25t101 -20.5t120 -25t126 -34.5t120 -53t101 -76.5t70 -109.5t26 -147q0 -197 -121.5 -318t-341.5 -149v-189h-262v189q-302 28 -500 209z" />
<glyph unicode="%" horiz-adv-x="1605" d="M41 1040q0 148 100.5 247t264.5 99q165 0 266.5 -99t101.5 -247q0 -146 -101.5 -244t-266.5 -98q-164 0 -264.5 98t-100.5 244zM268 0l873 1366h200l-874 -1366h-199zM291 1040q0 -63 32 -94t83 -31q53 0 85.5 31t32.5 94q0 66 -32.5 97.5t-85.5 31.5q-51 0 -83 -32 t-32 -97zM834 317q0 148 100 247.5t264 99.5t265.5 -99.5t101.5 -247.5q0 -146 -101.5 -244t-265.5 -98t-264 98t-100 244zM1081 317q0 -64 32 -94t85 -30t86 30t33 94q0 65 -33 97t-86 32t-85 -31.5t-32 -97.5z" />
<glyph unicode="&#x26;" horiz-adv-x="1335" d="M25 387q0 73 22 134t64 106.5t89.5 79t110.5 63.5q-75 150 -75 279q0 142 122 239.5t314 97.5q106 0 198 -35.5t150.5 -107.5t58.5 -166q0 -61 -19 -112.5t-46.5 -87t-74 -68.5t-86 -53t-97.5 -45q50 -69 78 -101l73 -94q68 107 101 217l284 -135q-88 -182 -194 -309 q131 -147 262 -289h-455l-63 66q-160 -91 -340 -91q-136 0 -242 44.5t-170.5 139t-64.5 228.5zM410 424q0 -71 43 -118.5t104 -47.5q47 0 96 21q-61 70 -102 124q-35 44 -100 136q-41 -50 -41 -115zM596 1038q0 -59 39 -135q65 32 100 68t35 84q0 32 -23 53.5t-57 21.5 q-41 0 -67.5 -26t-26.5 -66z" />
<glyph unicode="'" horiz-adv-x="516" d="M70 1198q0 78 55.5 133t132.5 55t132.5 -55t55.5 -133q0 -21 -28 -147t-56 -241l-28 -116h-152q-112 457 -112 504z" />
<glyph unicode="(" horiz-adv-x="708" d="M76 498q0 251 100.5 505.5t261.5 399.5l234 -178q-108 -178 -154.5 -348.5t-46.5 -378.5q0 -207 47 -377.5t154 -345.5l-234 -183q-161 144 -261.5 399.5t-100.5 506.5z" />
<glyph unicode=")" horiz-adv-x="710" d="M37 -225q107 175 154 345.5t47 377.5q0 208 -46.5 378.5t-154.5 348.5l233 178q161 -145 262 -400t101 -505t-101 -505.5t-262 -400.5z" />
<glyph unicode="*" horiz-adv-x="743" d="M35 946l188 98l-188 99l82 143l180 -115l-8 215h166l-11 -215l181 115l84 -143l-191 -99l191 -98l-84 -143l-181 115l11 -216h-166l8 216l-180 -115z" />
<glyph unicode="+" horiz-adv-x="1044" d="M59 584v215h344v379h238v-379h344v-215h-344v-396h-238v396h-344z" />
<glyph unicode="," horiz-adv-x="575" d="M70 199q0 89 63 152t150 63q98 0 167.5 -71.5t69.5 -192.5q0 -133 -67 -249t-189 -202l-149 121q52 23 109.5 81.5t76.5 114.5q-20 -8 -53 -8q-75 0 -126.5 53t-51.5 138z" />
<glyph unicode="-" horiz-adv-x="614" d="M61 342v307h492v-307h-492z" />
<glyph unicode="." horiz-adv-x="579" d="M70 195q0 89 65 154t154 65t154 -65t65 -154t-65 -154.5t-154 -65.5t-154 65.5t-65 154.5z" />
<glyph unicode="/" horiz-adv-x="741" d="M0 -41l485 1448h256l-485 -1448h-256z" />
<glyph unicode="0" horiz-adv-x="1286" d="M37 682q0 113 23.5 216t72.5 192t120 155t171 103.5t219 37.5t219 -37.5t171 -103.5t120 -155t72.5 -192t23.5 -216t-23.5 -216t-73 -193t-120 -156t-170.5 -104t-219 -38t-219 38t-170.5 104t-120 156t-73 193t-23.5 216zM453 682q0 -174 46 -258t144 -84t144.5 84 t46.5 258t-46.5 257t-144.5 83t-144 -83t-46 -257z" />
<glyph unicode="1" horiz-adv-x="989" d="M0 854l522 512h357v-1366h-414v840l-232 -230z" />
<glyph unicode="2" horiz-adv-x="1255" d="M25 1155q111 118 265.5 174.5t311.5 56.5q263 0 424.5 -132t161.5 -339q0 -143 -96.5 -270t-335.5 -285h444v-360h-1116v322q171 120 269 190t184.5 135.5t124.5 98.5t66 67t34 54t6 48q0 48 -45 77.5t-113 29.5q-193 0 -360 -141z" />
<glyph unicode="3" horiz-adv-x="1263" d="M25 188l202 283q74 -64 178.5 -97.5t192.5 -33.5q96 0 147.5 26.5t51.5 65.5q0 26 -14 40.5t-61.5 24t-135.5 9.5q-159 0 -199 -4v366q27 -2 199 -2q188 0 188 68q0 88 -203 88q-89 0 -176 -30.5t-157 -88.5l-195 258q205 225 573 225q276 0 423 -102.5t147 -275.5 q0 -109 -85.5 -195t-215.5 -108q58 -6 114.5 -30.5t103.5 -64.5t76 -98.5t29 -126.5q0 -183 -164.5 -296.5t-429.5 -113.5q-195 0 -346.5 58t-242.5 155z" />
<glyph unicode="4" horiz-adv-x="1302" d="M37 219v318l498 829h573v-786h158v-361h-158v-219h-414v219h-657zM436 580h258v430z" />
<glyph unicode="5" horiz-adv-x="1282" d="M66 168l221 291q69 -57 161.5 -88t184.5 -31q96 0 144 33t48 80q0 49 -45 80.5t-135 31.5q-154 0 -254 -94l-285 66v829h1045v-360h-631v-193q51 48 126 76.5t159 28.5q117 0 217 -54t161.5 -157.5t61.5 -235.5q0 -228 -161.5 -362t-446.5 -134q-359 0 -571 193z" />
<glyph unicode="6" horiz-adv-x="1280" d="M37 680q0 224 91.5 385t251.5 241t374 80q117 0 231 -31.5t195 -86.5l-174 -320q-105 74 -252 74q-53 0 -104 -14.5t-95.5 -42t-72 -75t-27.5 -106.5v-4q52 66 137 103t180 37q93 0 179.5 -30.5t154.5 -86.5t108.5 -143t40.5 -193q0 -220 -160.5 -356t-406.5 -136 q-164 0 -290.5 53.5t-204 150t-117 223t-39.5 278.5zM453 514q7 -76 58 -125t151 -49q76 0 125 33.5t49 77.5q0 41 -32 69t-73 38.5t-86 10.5q-122 0 -192 -55z" />
<glyph unicode="7" horiz-adv-x="1177" d="M37 1006v360h1116v-287l-455 -1079h-452l432 1006h-641z" />
<glyph unicode="8" horiz-adv-x="1290" d="M37 365q0 109 70.5 199.5t189.5 140.5q-238 98 -238 315q0 78 34 141t91 104t133.5 69t158 40t169.5 12t169.5 -12t158 -40t133.5 -69t91 -104t34 -141q0 -216 -240 -315q119 -50 190.5 -141t71.5 -199q0 -101 -51.5 -178t-139.5 -122t-193.5 -67.5t-223.5 -22.5 t-223.5 22.5t-193.5 67.5t-139.5 122t-51.5 178zM457 412q0 -44 51 -72.5t137 -28.5q84 0 136.5 29t52.5 72q0 37 -58.5 66.5t-130.5 39.5q-73 -10 -130.5 -39.5t-57.5 -66.5zM479 958q0 -31 50 -58t116 -36q66 9 115 36t49 58q0 42 -44 67.5t-120 25.5q-77 0 -121.5 -25.5 t-44.5 -67.5z" />
<glyph unicode="9" horiz-adv-x="1280" d="M25 897q0 220 160.5 356t406.5 136q164 0 290.5 -53.5t204 -150t117 -223t39.5 -278.5q0 -224 -91.5 -385t-252 -241.5t-373.5 -80.5q-117 0 -230.5 31.5t-195.5 87.5l174 320q105 -74 252 -74q130 0 214.5 67.5t84.5 168.5v6q-52 -66 -137 -103t-180 -37 q-93 0 -179.5 30.5t-154.5 86.5t-108.5 143t-40.5 193zM444 913q0 -41 32 -69t73 -38.5t86 -10.5q122 0 192 55q-7 76 -58 125t-153 49q-74 0 -123 -33.5t-49 -77.5z" />
<glyph unicode=":" horiz-adv-x="544" d="M70 195q0 89 65 154t154 65t154 -65t65 -154t-65 -154.5t-154 -65.5t-154 65.5t-65 154.5zM70 784q0 89 65 154.5t154 65.5t154 -65.5t65 -154.5t-65 -154t-154 -65t-154 65t-65 154z" />
<glyph unicode=";" horiz-adv-x="575" d="M70 201q0 89 63 152t150 63q98 0 167.5 -71.5t69.5 -192.5q0 -133 -67 -249t-189 -202l-149 121q52 23 109.5 81.5t76.5 114.5q-20 -8 -53 -8q-75 0 -126.5 53t-51.5 138zM70 786q0 89 65 153.5t154 64.5t154 -64.5t65 -153.5t-65 -155t-154 -66t-154 66t-65 155z" />
<glyph unicode="&#x3c;" horiz-adv-x="1044" d="M59 553v266l926 369v-256l-684 -248l684 -244v-256z" />
<glyph unicode="=" horiz-adv-x="1044" d="M59 389v215h926v-215h-926zM59 764v215h926v-215h-926z" />
<glyph unicode="&#x3e;" horiz-adv-x="1044" d="M59 184v256l684 244l-684 248v256l926 -369v-266z" />
<glyph unicode="?" horiz-adv-x="921" d="M0 1200q86 92 207.5 139t247.5 47q207 0 328.5 -88.5t121.5 -240.5q0 -59 -16 -108.5t-41.5 -83t-56.5 -62.5t-62.5 -51.5t-57 -44t-41.5 -46.5t-16 -53q0 -48 23 -76l-324 -73q-55 75 -55 194q0 62 23.5 112.5t57 81t67.5 54t57.5 42.5t23.5 36q0 43 -79 43 q-41 0 -91.5 -23.5t-87.5 -62.5zM248 195q0 89 65 154t154 65t154 -65t65 -154t-65 -154.5t-154 -65.5t-154 65.5t-65 154.5z" />
<glyph unicode="@" horiz-adv-x="1603" d="M72 500q0 158 67.5 307.5t178.5 258.5t260.5 175t306.5 66q145 0 267.5 -49t204.5 -132t127.5 -193t45.5 -231q0 -106 -30 -195.5t-78 -149.5t-109 -102.5t-122 -61.5t-118 -19q-91 0 -142.5 38t-68.5 97l-4 15q-52 -74 -122.5 -112t-141.5 -38q-151 0 -236.5 100.5 t-85.5 255.5q0 95 37 185.5t98 156.5t142.5 106t167.5 40q84 0 149 -30.5t101 -84.5l18 90h324l-95 -444q-6 -30 -6 -55q0 -78 58 -78q65 0 113 77t48 209q0 236 -147.5 375.5t-402.5 139.5q-140 0 -271.5 -58t-228 -154t-155 -227.5t-58.5 -271.5q0 -157 72.5 -285 t203 -202t291.5 -74q193 0 367 110l49 -69q-200 -129 -426 -129q-183 0 -332 85t-233 232t-84 326zM604 559q0 -60 35 -95.5t94 -35.5q85 0 152 84l39 195q-38 57 -119 57q-90 0 -145.5 -61.5t-55.5 -143.5z" />
<glyph unicode="A" horiz-adv-x="1454" d="M-37 0l504 1366h520l504 -1366h-469l-49 160h-492l-49 -160h-469zM592 520h270l-135 441z" />
<glyph unicode="B" horiz-adv-x="1427" d="M111 0v1366h829q102 0 182.5 -31.5t127.5 -83t71.5 -111.5t24.5 -122q0 -124 -65.5 -207t-168.5 -106q112 -18 186 -111t74 -223q0 -73 -25 -138.5t-73 -118t-127 -83.5t-178 -31h-858zM524 344h332q44 0 70 23.5t26 62.5q0 38 -26.5 63t-69.5 25h-332v-174zM524 862h320 q33 0 57.5 23t24.5 59q0 34 -24.5 56t-57.5 22h-320v-160z" />
<glyph unicode="C" horiz-adv-x="1427" d="M37 682q0 207 98.5 369t269 250t383.5 88q103 0 193.5 -23.5t156 -62t120 -92t90 -107t61.5 -113.5l-356 -166q-27 83 -101.5 141t-163.5 58q-147 0 -239 -98.5t-92 -243.5t92 -243.5t239 -98.5q89 0 163.5 58t101.5 141l356 -164q-26 -59 -61 -112t-89.5 -107t-120 -93 t-156.5 -63.5t-194 -24.5q-213 0 -384 88.5t-269 250.5t-98 368z" />
<glyph unicode="D" horiz-adv-x="1507" d="M111 0v1366h610q217 0 385 -78.5t266 -234.5t98 -369t-98 -369.5t-265.5 -235.5t-383.5 -79h-612zM524 360h197q150 0 240 94.5t90 229.5q0 144 -84 233t-244 89h-199v-646z" />
<glyph unicode="E" horiz-adv-x="1220" d="M111 0v1366h1036v-360h-623v-136h609v-360h-609v-150h623v-360h-1036z" />
<glyph unicode="F" horiz-adv-x="1212" d="M111 0v1366h1036v-360h-623v-136h609v-360h-609v-510h-413z" />
<glyph unicode="G" horiz-adv-x="1486" d="M37 682q0 160 59 294.5t161 224t239 139t292 49.5q95 0 179.5 -20.5t148.5 -54.5t118 -81t91 -96.5t64 -104.5l-349 -178q-33 70 -99.5 120t-152.5 50q-147 0 -239 -98.5t-92 -243.5t92 -243.5t239 -98.5q58 0 119 18t94 43v50h-253v360h665v-559q-251 -277 -625 -277 q-155 0 -292 50t-239 139.5t-161 223.5t-59 294z" />
<glyph unicode="H" horiz-adv-x="1538" d="M111 0v1366h413v-483h490v483h413v-1366h-413v522h-490v-522h-413z" />
<glyph unicode="I" horiz-adv-x="634" d="M111 0v1366h413v-1366h-413z" />
<glyph unicode="J" horiz-adv-x="1019" d="M0 86l168 315q89 -61 176 -61q68 0 110 41.5t42 112.5v872h413v-879q0 -255 -141 -383.5t-387 -128.5q-238 0 -381 111z" />
<glyph unicode="K" horiz-adv-x="1374" d="M111 0v1366h413v-512l359 512h506l-517 -635l539 -731h-504l-307 481l-76 -102v-379h-413z" />
<glyph unicode="L" horiz-adv-x="1097" d="M111 0v1366h413v-1006h518v-360h-931z" />
<glyph unicode="M" horiz-adv-x="1843" d="M111 0v1366h571l240 -655l239 655h572v-1366h-414v821l-305 -821h-185l-305 821v-821h-413z" />
<glyph unicode="N" horiz-adv-x="1536" d="M111 0v1366h426l475 -647v647h413v-1366h-397l-504 692v-692h-413z" />
<glyph unicode="O" horiz-adv-x="1568" d="M37 682q0 155 57.5 287.5t157.5 224t237.5 143.5t294.5 52t295 -52t237.5 -143.5t157.5 -224t58 -287.5t-58 -287.5t-157.5 -224t-237.5 -143.5t-295 -52t-294.5 52t-237.5 143.5t-157.5 224t-57.5 287.5zM457 682q0 -146 90.5 -244t236.5 -98t237 98t91 244t-91 244 t-237 98t-236.5 -98t-90.5 -244z" />
<glyph unicode="P" horiz-adv-x="1355" d="M111 0v1366h729q154 0 267.5 -64.5t168.5 -169.5t55 -235q0 -129 -55 -233.5t-168.5 -169t-267.5 -64.5h-316v-430h-413zM524 791h262q55 0 90 27t35 79q0 53 -35 81t-90 28h-262v-215z" />
<glyph unicode="Q" horiz-adv-x="1568" d="M37 682q0 155 57.5 287.5t157.5 224t237.5 143.5t294.5 52t295 -52t237.5 -143.5t157.5 -224t58 -287.5q0 -272 -170 -463l74 -92l-287 -229l-96 118q-128 -41 -269 -41q-157 0 -294.5 52t-237.5 143.5t-157.5 224t-57.5 287.5zM457 682q0 -146 90.5 -244t236.5 -98h13 l-95 119l287 229l103 -131q20 56 20 125q0 146 -91 244t-237 98t-236.5 -98t-90.5 -244z" />
<glyph unicode="R" horiz-adv-x="1388" d="M111 0v1366h729q154 0 267.5 -64.5t168.5 -169.5t55 -235q0 -84 -22.5 -155.5t-60.5 -121t-78 -82.5t-85 -55l248 -483h-471l-188 430h-150v-430h-413zM524 791h252q57 0 96 27t39 81q0 52 -39 79.5t-96 27.5h-252v-215z" />
<glyph unicode="S" horiz-adv-x="1255" d="M6 193l215 307q82 -79 196 -127.5t245 -48.5q65 0 108 18t43 55q0 21 -26 35t-70 23.5t-101.5 19t-120.5 23.5t-126 33.5t-120.5 53.5t-101.5 79t-70 114.5t-26 155.5q0 88 36.5 168.5t105.5 144t179 101.5t246 38q347 0 580 -190l-221 -293q-86 65 -193.5 100t-208.5 35 q-104 0 -104 -61q0 -20 26 -35t70 -25t101 -20.5t120 -25t126 -34.5t120 -53t101 -76.5t70 -109.5t26 -147q0 -225 -157 -350.5t-433 -125.5q-394 0 -635 218z" />
<glyph unicode="T" horiz-adv-x="1218" d="M37 1006v360h1145v-360h-365v-1006h-414v1006h-366z" />
<glyph unicode="U" horiz-adv-x="1570" d="M111 561v805h419v-791q0 -103 66.5 -169t189.5 -66q121 0 187.5 66t66.5 169v791h420v-803q0 -129 -41 -235.5t-122.5 -186t-211.5 -123t-299 -43.5t-299.5 43.5t-211.5 123t-122.5 185t-41.5 234.5z" />
<glyph unicode="V" horiz-adv-x="1454" d="M-37 1366h469l295 -920l295 920h469l-504 -1366h-520z" />
<glyph unicode="W" horiz-adv-x="1953" d="M-25 1366h463l176 -836l207 836h312l206 -836l174 836h465l-391 -1366h-434l-176 774l-176 -774h-434z" />
<glyph unicode="X" horiz-adv-x="1400" d="M-37 0l457 700l-426 666h485l221 -389l218 389h489l-426 -664l457 -702h-488l-250 418l-249 -418h-488z" />
<glyph unicode="Y" horiz-adv-x="1359" d="M-37 1366h465l254 -461l250 461h465l-508 -823v-543h-414v543z" />
<glyph unicode="Z" horiz-adv-x="1228" d="M74 0v328l520 678h-520v360h1067v-326l-523 -680h537v-360h-1081z" />
<glyph unicode="[" horiz-adv-x="649" d="M111 -389v1778h501v-234h-245v-1311h245v-233h-501z" />
<glyph unicode="\" horiz-adv-x="741" d="M0 1407h256l485 -1448h-256z" />
<glyph unicode="]" horiz-adv-x="649" d="M37 -156h246v1311h-246v234h502v-1778h-502v233z" />
<glyph unicode="^" horiz-adv-x="921" d="M39 682l293 684h264l287 -684h-258l-164 440l-162 -440h-260z" />
<glyph unicode="_" horiz-adv-x="1155" d="M-6 -82h1167v-233h-1167v233z" />
<glyph unicode="`" horiz-adv-x="563" d="M0 1434h317l246 -295h-246z" />
<glyph unicode="a" horiz-adv-x="1144" d="M35 301q0 71 21.5 127t55.5 90.5t80 57t91 31.5t92 9q98 0 179 -29t120 -79v102q0 54 -48.5 88.5t-136.5 34.5q-69 0 -142 -26t-132 -70l-125 227q94 75 219.5 112.5t247.5 37.5q78 0 145 -11.5t131.5 -40.5t109 -74.5t72 -119.5t27.5 -170v-598h-368v94 q-41 -53 -124 -86t-175 -33q-58 0 -116 20t-109 58t-83 103t-32 145zM399 295q0 -42 38 -61t91 -19q45 0 86.5 14t59.5 39v56q-18 25 -59.5 39t-86.5 14q-53 0 -91 -20t-38 -62z" />
<glyph unicode="b" horiz-adv-x="1220" d="M102 0v1366h369v-481q107 129 279 129q189 0 312.5 -139.5t123.5 -378.5q0 -124 -34 -224t-94 -164.5t-138.5 -98.5t-169.5 -34q-164 0 -279 129v-104h-369zM471 367q25 -30 69.5 -48t84.5 -18q78 0 131 52.5t53 142.5q0 89 -53 140.5t-131 51.5q-39 0 -84 -18t-70 -49 v-254z" />
<glyph unicode="c" horiz-adv-x="1028" d="M35 496q0 153 73.5 272t199.5 182.5t282 63.5q154 0 262.5 -56t157.5 -131l-238 -223q-25 38 -67.5 61t-98.5 23q-83 0 -138.5 -50.5t-55.5 -141.5t56 -143t138 -52q55 0 97.5 24.5t68.5 61.5l238 -225q-50 -74 -158.5 -130.5t-261.5 -56.5q-156 0 -282 64t-199.5 183.5 t-73.5 273.5z" />
<glyph unicode="d" horiz-adv-x="1220" d="M35 496q0 239 123.5 378.5t312.5 139.5q172 0 279 -129v481h368v-1366h-368v104q-115 -129 -279 -129q-91 0 -169.5 34t-138.5 98.5t-94 164.5t-34 224zM412 496q0 -89 53 -142t131 -53q39 0 84 18.5t70 49.5v254q-25 30 -69.5 47.5t-84.5 17.5q-78 0 -131 -51.5 t-53 -140.5z" />
<glyph unicode="e" horiz-adv-x="1112" d="M35 496q0 107 39.5 202t109.5 165t171 110.5t218 40.5q224 0 369 -151t145 -406v-76h-671q16 -52 72 -88.5t141 -36.5q48 0 120.5 20t106.5 50l152 -228q-70 -60 -187 -91.5t-235 -31.5q-155 0 -279.5 61.5t-198 181t-73.5 278.5zM412 614h325q-5 19 -14 37t-26.5 38 t-49.5 32t-74 12q-129 0 -161 -119z" />
<glyph unicode="f" horiz-adv-x="759" d="M14 670v319h164v45q0 155 106 253.5t271 98.5q92 0 175.5 -26.5t133.5 -79.5l-133 -205q-33 39 -90 39q-37 0 -65.5 -22.5t-28.5 -57.5v-45h201v-319h-201v-670h-369v670h-164z" />
<glyph unicode="g" horiz-adv-x="1218" d="M35 520q0 238 121 366t313 128q169 0 279 -129v104h368v-883q0 -123 -39.5 -216.5t-99.5 -147.5t-143 -87.5t-158 -44.5t-158 -11q-264 0 -450 147l155 262q54 -54 132.5 -81t162.5 -27q38 0 73.5 8.5t73 29t60.5 64t23 104.5v54q-116 -133 -279 -133q-91 0 -168.5 30 t-137.5 89t-94 155t-34 219zM412 520q0 -86 51.5 -127t132.5 -41q38 0 82.5 17.5t69.5 46.5v209q-25 29 -69.5 46t-82.5 17q-81 0 -132.5 -41t-51.5 -127z" />
<glyph unicode="h" horiz-adv-x="1245" d="M104 0v1366h369v-489q50 58 135.5 97.5t204.5 39.5q164 0 247 -85t83 -222v-707h-369v551q0 73 -36.5 105t-106.5 32q-56 0 -91.5 -21.5t-66.5 -56.5v-610h-369z" />
<glyph unicode="i" d="M80 1268q0 86 60.5 146.5t146.5 60.5t146.5 -60.5t60.5 -146.5t-60.5 -146.5t-146.5 -60.5t-146.5 60.5t-60.5 146.5zM102 0v989h369v-989h-369z" />
<glyph unicode="j" d="M-217 -334l88 273q31 -23 55.5 -31t67.5 -8q52 0 80 36.5t28 106.5v946h369v-946q0 -201 -103 -322.5t-309 -121.5q-107 0 -159.5 14t-116.5 53zM80 1268q0 86 60.5 146.5t146.5 60.5t146.5 -60.5t60.5 -146.5t-60.5 -146.5t-146.5 -60.5t-146.5 60.5t-60.5 146.5z" />
<glyph unicode="k" horiz-adv-x="1140" d="M102 0v1366h369v-729l227 352h445l-340 -450l362 -539h-452l-170 319l-72 -96v-223h-369z" />
<glyph unicode="l" d="M102 0v1366h369v-1366h-369z" />
<glyph unicode="m" horiz-adv-x="1837" d="M102 0v989h369v-112q39 50 129 93.5t199 43.5q220 0 284 -174q47 71 141 122.5t206 51.5q142 0 223.5 -74t81.5 -223v-717h-369v578q0 48 -27.5 79t-85.5 31q-84 0 -151 -78v-610h-369v578q0 49 -26.5 79.5t-85.5 30.5q-83 0 -150 -78v-610h-369z" />
<glyph unicode="n" horiz-adv-x="1243" d="M102 0v989h369v-112q50 58 135.5 97.5t204.5 39.5q164 0 247 -87t83 -225v-702h-369v547q0 141 -143 141q-56 0 -91.5 -21.5t-66.5 -56.5v-610h-369z" />
<glyph unicode="o" horiz-adv-x="1181" d="M35 496q0 104 38 197.5t107.5 165t175.5 113.5t234 42t235 -42t176.5 -113.5t107.5 -165t38 -197.5t-38 -198t-107.5 -166t-176.5 -114.5t-235 -42.5t-234 42.5t-175.5 114.5t-107.5 166t-38 198zM414 496q0 -86 46.5 -140.5t129.5 -54.5q84 0 131 54.5t47 140.5 q0 85 -47 138.5t-131 53.5q-82 0 -129 -54t-47 -138z" />
<glyph unicode="p" horiz-adv-x="1218" d="M102 -377v1366h369v-104q110 129 279 129q191 0 312.5 -136t121.5 -382q0 -247 -121.5 -384t-312.5 -137q-166 0 -279 129v-481h-369zM471 369q24 -29 69.5 -48.5t82.5 -19.5q77 0 130.5 52.5t53.5 142.5q0 89 -53.5 140.5t-130.5 51.5q-38 0 -82.5 -18.5t-69.5 -48.5 v-252z" />
<glyph unicode="q" horiz-adv-x="1218" d="M35 496q0 246 121.5 382t312.5 136q169 0 279 -129v104h368v-1366h-368v481q-113 -129 -279 -129q-191 0 -312.5 137t-121.5 384zM412 496q0 -90 53.5 -142.5t130.5 -52.5q37 0 82.5 19.5t69.5 48.5v252q-25 30 -69.5 48.5t-82.5 18.5q-77 0 -130.5 -51.5t-53.5 -140.5z " />
<glyph unicode="r" horiz-adv-x="798" d="M102 0v989h369v-108q47 56 134 96.5t169 40.5v-352q-30 10 -84 10q-65 0 -127.5 -18t-91.5 -52v-606h-369z" />
<glyph unicode="s" horiz-adv-x="1003" d="M18 127l148 248q61 -47 168 -86t188 -39q99 0 99 43q0 18 -31 28.5t-80.5 17t-109.5 15t-120 29.5t-109.5 54t-80.5 94t-31 145q0 141 118.5 239.5t324.5 98.5q236 0 428 -127l-135 -240q-50 42 -130 72.5t-161 30.5q-39 0 -65.5 -12.5t-26.5 -30.5q0 -14 24 -23.5 t63.5 -14t90 -14t103 -20.5t103 -36.5t90 -60t63.5 -92t24 -131.5q0 -151 -126.5 -245.5t-342.5 -94.5q-135 0 -270.5 42.5t-215.5 109.5z" />
<glyph unicode="t" horiz-adv-x="782" d="M14 670v319h164v271h369v-271h201v-319h-201v-277q0 -39 23 -65.5t59 -26.5q23 0 44.5 5.5t28.5 12.5l66 -278q-32 -29 -97 -47.5t-153 -18.5q-165 0 -252.5 79t-87.5 233v383h-164z" />
<glyph unicode="u" horiz-adv-x="1241" d="M102 283v706h369v-549q0 -139 143 -139q38 0 70.5 13.5t49 27.5t36.5 37v610h369v-989h-369v111q-51 -57 -136 -96.5t-204 -39.5q-163 0 -245.5 86t-82.5 222z" />
<glyph unicode="v" horiz-adv-x="1095" d="M-31 989h389l189 -565l190 565h389l-383 -989h-391z" />
<glyph unicode="w" horiz-adv-x="1648" d="M-25 989h379l131 -545l174 545h330l172 -545l131 545h381l-287 -989h-401l-162 553l-159 -553h-402z" />
<glyph unicode="x" horiz-adv-x="1067" d="M-25 0l324 508l-303 481h403l133 -231l134 231h403l-303 -481l326 -508h-404l-153 262l-158 -262h-402z" />
<glyph unicode="y" horiz-adv-x="1095" d="M-31 989h389l189 -565l190 565h389l-430 -1112q-32 -83 -78 -138.5t-108 -84.5t-125 -41t-149 -14q-88 0 -144 16l51 328q36 -19 78 -19q112 0 129 39l8 21z" />
<glyph unicode="z" horiz-adv-x="995" d="M68 0v270l348 400h-348v319h852v-258l-357 -412h365v-319h-860z" />
<glyph unicode="{" horiz-adv-x="647" d="M4 403v193q52 0 79.5 36t27.5 95v283q0 172 111 275.5t267 103.5h123v-234h-123q-53 0 -87.5 -38.5t-34.5 -104.5v-326q0 -145 -95 -186q95 -41 95 -187v-323q0 -65 35 -105.5t87 -40.5h123v-233h-123q-156 0 -267 102.5t-111 274.5v284q0 59 -27.5 95t-79.5 36z" />
<glyph unicode="|" horiz-adv-x="454" d="M111 -41v1448h233v-1448h-233z" />
<glyph unicode="}" horiz-adv-x="647" d="M35 -156h123q52 0 87.5 40.5t35.5 105.5v323q0 147 94 187q-94 40 -94 186v326q0 66 -35 104.5t-88 38.5h-123v234h123q156 0 267.5 -103.5t111.5 -275.5v-283q0 -59 27 -95t79 -36v-193q-52 0 -79 -36t-27 -95v-284q0 -87 -31 -159t-84 -119t-121 -73t-143 -26h-123v233 z" />
<glyph unicode="~" horiz-adv-x="1060" d="M51 848q6 82 16.5 148t34 138t57.5 120.5t90.5 80t129.5 31.5q56 0 99 -18.5t67.5 -48t41.5 -65t27 -71t19 -65t21.5 -48t29.5 -18.5q68 0 88 334l238 -29q-5 -68 -13 -123t-22.5 -117.5t-38.5 -109t-57.5 -86t-83 -60t-111.5 -20.5q-56 0 -99 18.5t-67.5 47.5 t-41.5 64.5t-27 71t-19 64.5t-21.5 47.5t-29.5 18.5q-15 0 -27.5 -15t-21 -44t-15 -58.5t-11 -73t-6.5 -72t-5 -69.5z" />
<glyph unicode="&#xa2;" horiz-adv-x="1028" d="M35 496q0 199 120.5 335.5t313.5 172.5v153h258v-158q101 -22 174 -69.5t109 -102.5l-238 -223q-25 38 -67.5 61t-98.5 23q-83 0 -138.5 -50.5t-55.5 -141.5t56 -143t138 -52q55 0 97.5 24.5t68.5 61.5l238 -225q-37 -54 -110 -102.5t-173 -69.5v-195h-258v191 q-193 34 -313.5 171.5t-120.5 338.5z" />
<glyph unicode="&#xa3;" horiz-adv-x="1189" d="M53 553v223h78q-45 85 -45 166q0 85 33.5 159t88 125t124.5 88t144 54.5t145 17.5q204 0 334.5 -63.5t203.5 -202.5l-328 -188q-22 62 -63.5 92.5t-93.5 30.5q-60 0 -97.5 -35t-37.5 -86q0 -58 45 -158h274v-223h-223q-3 -48 -33 -98t-72 -76q37 12 88 12q57 0 125 -25.5 t109 -25.5q106 0 156 68l157 -326q-100 -107 -327 -107q-75 0 -148.5 21.5t-131.5 43t-95 21.5q-104 0 -234 -75l-135 270q174 95 174 197q0 45 -20 100h-195z" />
<glyph unicode="&#xa5;" horiz-adv-x="1359" d="M-37 1366h465l254 -461l250 461h465l-375 -608h291v-215h-424v-109h424v-215h-424v-219h-414v219h-424v215h424v109h-424v215h289z" />
<glyph unicode="&#xa8;" horiz-adv-x="651" d="M-78 1266q0 76 53 129t129 53q77 0 130 -53t53 -129t-53.5 -129.5t-129.5 -53.5t-129 53t-53 130zM365 1266q0 76 53.5 129t128.5 53q77 0 130.5 -53t53.5 -129t-53.5 -129.5t-130.5 -53.5q-75 0 -128.5 53.5t-53.5 129.5z" />
<glyph unicode="&#xa9;" horiz-adv-x="1593" d="M90 684q0 192 95 355t258 257.5t354 94.5q144 0 275 -56t225 -150.5t150 -225.5t56 -275q0 -143 -56 -274t-150 -226t-225 -151t-275 -56q-191 0 -354 95t-258 258t-95 354zM176 684q0 -125 49.5 -240t133 -198.5t198.5 -133t240 -49.5q168 0 311 84t226 227t83 310 q0 168 -83 311t-226 226.5t-311 83.5q-167 0 -310.5 -83.5t-227 -226.5t-83.5 -311zM387 686q0 185 123.5 305.5t302.5 120.5q93 0 172 -37t135 -102l-76 -76q-41 55 -101 87t-130 32q-132 0 -222.5 -93.5t-90.5 -236.5q0 -142 91 -238t222 -96q71 0 132 32.5t102 88.5 l77 -74q-57 -67 -137.5 -105t-173.5 -38q-179 0 -302.5 122.5t-123.5 307.5z" />
<glyph unicode="&#xab;" horiz-adv-x="1259" d="M61 498l328 362h328l-328 -362l328 -369h-328zM543 498l327 362h328l-328 -362l328 -369h-328z" />
<glyph unicode="&#xad;" horiz-adv-x="614" d="M61 342v307h492v-307h-492z" />
<glyph unicode="&#xae;" horiz-adv-x="1011" d="M72 952q0 181 127 307.5t307 126.5q119 0 219 -57.5t157.5 -157.5t57.5 -219q0 -180 -126.5 -307t-307.5 -127q-180 0 -307 127t-127 307zM143 952q0 -150 106.5 -256t256.5 -106t256 106t106 256q0 152 -105.5 257.5t-256.5 105.5t-257 -105.5t-106 -257.5zM338 702v498 h203q66 0 117 -42.5t51 -108.5q0 -72 -46 -110t-81 -38l133 -199h-92l-129 197h-80v-197h-76zM414 965h127q34 0 62 24t28 60q0 39 -27.5 63.5t-62.5 24.5h-127v-172z" />
<glyph unicode="&#xb4;" horiz-adv-x="563" d="M0 1139l246 295h317l-317 -295h-246z" />
<glyph unicode="&#xb8;" horiz-adv-x="485" d="M0 -340l63 131q87 -61 170 -61q36 0 61 12t25 37q0 35 -43 35q-32 0 -53 -25l-121 70l62 164h164l-52 -119q30 18 70 18q57 0 98 -42t41 -107q0 -85 -69.5 -134t-171.5 -49q-77 0 -142.5 20t-101.5 50z" />
<glyph unicode="&#xbb;" horiz-adv-x="1259" d="M61 129l328 369l-328 362h328l328 -362l-328 -369h-328zM543 129l327 369l-327 362h327l328 -362l-328 -369h-327z" />
<glyph unicode="&#xe0;" horiz-adv-x="1144" d="M35 301q0 71 21.5 127t55.5 90.5t80 57t91 31.5t92 9q98 0 179 -29t120 -79v102q0 54 -48.5 88.5t-136.5 34.5q-69 0 -142 -26t-132 -70l-125 227q94 75 219.5 112.5t247.5 37.5q78 0 145 -11.5t131.5 -40.5t109 -74.5t72 -119.5t27.5 -170v-598h-368v94 q-41 -53 -124 -86t-175 -33q-58 0 -116 20t-109 58t-83 103t-32 145zM135 1434h318l245 -295h-245zM399 295q0 -42 38 -61t91 -19q45 0 86.5 14t59.5 39v56q-18 25 -59.5 39t-86.5 14q-53 0 -91 -20t-38 -62z" />
<glyph unicode="&#xe1;" horiz-adv-x="1144" d="M35 301q0 71 21.5 127t55.5 90.5t80 57t91 31.5t92 9q98 0 179 -29t120 -79v102q0 54 -48.5 88.5t-136.5 34.5q-69 0 -142 -26t-132 -70l-125 227q94 75 219.5 112.5t247.5 37.5q78 0 145 -11.5t131.5 -40.5t109 -74.5t72 -119.5t27.5 -170v-598h-368v94 q-41 -53 -124 -86t-175 -33q-58 0 -116 20t-109 58t-83 103t-32 145zM399 295q0 -42 38 -61t91 -19q45 0 86.5 14t59.5 39v56q-18 25 -59.5 39t-86.5 14q-53 0 -91 -20t-38 -62zM416 1139l246 295h317l-317 -295h-246z" />
<glyph unicode="&#xe2;" horiz-adv-x="1144" d="M35 301q0 71 21.5 127t55.5 90.5t80 57t91 31.5t92 9q98 0 179 -29t120 -79v102q0 54 -48.5 88.5t-136.5 34.5q-69 0 -142 -26t-132 -70l-125 227q94 75 219.5 112.5t247.5 37.5q78 0 145 -11.5t131.5 -40.5t109 -74.5t72 -119.5t27.5 -170v-598h-368v94 q-41 -53 -124 -86t-175 -33q-58 0 -116 20t-109 58t-83 103t-32 145zM227 1139l181 295h319l186 -295h-215l-131 149l-125 -149h-215zM399 295q0 -42 38 -61t91 -19q45 0 86.5 14t59.5 39v56q-18 25 -59.5 39t-86.5 14q-53 0 -91 -20t-38 -62z" />
<glyph unicode="&#xe3;" horiz-adv-x="1144" d="M35 301q0 71 21.5 127t55.5 90.5t80 57t91 31.5t92 9q98 0 179 -29t120 -79v102q0 54 -48.5 88.5t-136.5 34.5q-69 0 -142 -26t-132 -70l-125 227q94 75 219.5 112.5t247.5 37.5q78 0 145 -11.5t131.5 -40.5t109 -74.5t72 -119.5t27.5 -170v-598h-368v94 q-41 -53 -124 -86t-175 -33q-58 0 -116 20t-109 58t-83 103t-32 145zM215 1147q0 274 242 274q55 0 99 -22t74.5 -44t51.5 -22t35 19.5t14 56.5h182q0 -274 -241 -274q-43 0 -81 13.5t-59.5 30.5t-44.5 30.5t-41 13.5q-21 0 -35 -19.5t-14 -56.5h-182zM399 295q0 -42 38 -61 t91 -19q45 0 86.5 14t59.5 39v56q-18 25 -59.5 39t-86.5 14q-53 0 -91 -20t-38 -62z" />
<glyph unicode="&#xe4;" horiz-adv-x="1144" d="M35 301q0 71 21.5 127t55.5 90.5t80 57t91 31.5t92 9q98 0 179 -29t120 -79v102q0 54 -48.5 88.5t-136.5 34.5q-69 0 -142 -26t-132 -70l-125 227q94 75 219.5 112.5t247.5 37.5q78 0 145 -11.5t131.5 -40.5t109 -74.5t72 -119.5t27.5 -170v-598h-368v94 q-41 -53 -124 -86t-175 -33q-58 0 -116 20t-109 58t-83 103t-32 145zM156 1266q0 76 53 129t129 53t129 -53t53 -129q0 -77 -53 -130t-129 -53t-129 53t-53 130zM399 295q0 -42 38 -61t91 -19q45 0 86.5 14t59.5 39v56q-18 25 -59.5 39t-86.5 14q-53 0 -91 -20t-38 -62z M598 1266q0 76 53.5 129t128.5 53q77 0 131 -53t54 -129t-54 -129.5t-131 -53.5q-75 0 -128.5 53.5t-53.5 129.5z" />
<glyph unicode="&#xe5;" horiz-adv-x="1144" d="M35 301q0 71 21.5 127t55.5 90.5t80 57t91 31.5t92 9q98 0 179 -29t120 -79v102q0 54 -48.5 88.5t-136.5 34.5q-69 0 -142 -26t-132 -70l-125 227q94 75 219.5 112.5t247.5 37.5q78 0 145 -11.5t131.5 -40.5t109 -74.5t72 -119.5t27.5 -170v-598h-368v94 q-41 -53 -124 -86t-175 -33q-58 0 -116 20t-109 58t-83 103t-32 145zM338 1292q0 94 67.5 162t161.5 68q93 0 159.5 -68t66.5 -162t-66.5 -161.5t-159.5 -67.5q-94 0 -161.5 67.5t-67.5 161.5zM399 295q0 -42 38 -61t91 -19q45 0 86.5 14t59.5 39v56q-18 25 -59.5 39 t-86.5 14q-53 0 -91 -20t-38 -62zM496 1292q0 -29 21 -50t50 -21t49.5 21t20.5 50t-20.5 50.5t-49.5 21.5t-50 -21.5t-21 -50.5z" />
<glyph unicode="&#xe6;" horiz-adv-x="1742" d="M35 295q0 157 98.5 239t247.5 82q97 0 182.5 -28t128.5 -78v100q0 53 -50 87t-142 34q-71 0 -147.5 -25.5t-137.5 -70.5l-125 229q94 75 219.5 112.5t247.5 37.5q212 0 320 -121q136 121 348 121q101 0 191 -38.5t157 -109t106 -176.5t39 -233v-76h-653q57 -117 213 -117 q55 0 110 19.5t91 50.5l159 -236q-69 -59 -183 -91t-220 -32q-215 0 -358 134q-71 -60 -177.5 -97t-228.5 -37q-125 0 -220.5 32t-155.5 106t-60 182zM399 305q0 -35 36 -52t79 -17q72 0 125 25t53 54v7q-20 25 -63.5 40t-91.5 15q-55 0 -96.5 -19t-41.5 -53zM1061 614h307 q-5 20 -13.5 37.5t-25.5 37.5t-47 32t-70 12q-68 0 -103.5 -36t-47.5 -83z" />
<glyph unicode="&#xe7;" horiz-adv-x="1028" d="M35 496q0 153 73.5 272t199.5 182.5t282 63.5q154 0 262.5 -56t157.5 -131l-238 -223q-25 38 -67.5 61t-98.5 23q-83 0 -138.5 -50.5t-55.5 -141.5t56 -143t138 -52q55 0 97.5 24.5t68.5 61.5l238 -225q-42 -64 -131 -116t-215 -66l-31 -72q30 18 69 18q57 0 98.5 -42.5 t41.5 -106.5q0 -85 -69.5 -134t-172.5 -49q-77 0 -142.5 20t-101.5 50l64 131q87 -61 170 -61q36 0 61 12t25 37q0 35 -43 35q-32 0 -53 -25l-121 70l43 119q-207 25 -337 164t-130 350z" />
<glyph unicode="&#xe8;" horiz-adv-x="1112" d="M35 496q0 107 39.5 202t109.5 165t171 110.5t218 40.5q224 0 369 -151t145 -406v-76h-671q16 -52 72 -88.5t141 -36.5q48 0 120.5 20t106.5 50l152 -228q-70 -60 -187 -91.5t-235 -31.5q-155 0 -279.5 61.5t-198 181t-73.5 278.5zM147 1434h318l246 -295h-246zM412 614 h325q-5 19 -14 37t-26.5 38t-49.5 32t-74 12q-129 0 -161 -119z" />
<glyph unicode="&#xe9;" horiz-adv-x="1112" d="M35 496q0 107 39.5 202t109.5 165t171 110.5t218 40.5q224 0 369 -151t145 -406v-76h-671q16 -52 72 -88.5t141 -36.5q48 0 120.5 20t106.5 50l152 -228q-70 -60 -187 -91.5t-235 -31.5q-155 0 -279.5 61.5t-198 181t-73.5 278.5zM412 614h325q-5 19 -14 37t-26.5 38 t-49.5 32t-74 12q-129 0 -161 -119zM428 1139l246 295h317l-317 -295h-246z" />
<glyph unicode="&#xea;" horiz-adv-x="1112" d="M35 496q0 107 39.5 202t109.5 165t171 110.5t218 40.5q224 0 369 -151t145 -406v-76h-671q16 -52 72 -88.5t141 -36.5q48 0 120.5 20t106.5 50l152 -228q-70 -60 -187 -91.5t-235 -31.5q-155 0 -279.5 61.5t-198 181t-73.5 278.5zM231 1139l181 295h319l187 -295h-216 l-131 149l-125 -149h-215zM412 614h325q-5 19 -14 37t-26.5 38t-49.5 32t-74 12q-129 0 -161 -119z" />
<glyph unicode="&#xeb;" horiz-adv-x="1112" d="M35 496q0 107 39.5 202t109.5 165t171 110.5t218 40.5q224 0 369 -151t145 -406v-76h-671q16 -52 72 -88.5t141 -36.5q48 0 120.5 20t106.5 50l152 -228q-70 -60 -187 -91.5t-235 -31.5q-155 0 -279.5 61.5t-198 181t-73.5 278.5zM172 1266q0 76 53 129t129 53 q77 0 130 -53t53 -129t-53.5 -129.5t-129.5 -53.5t-129 53t-53 130zM412 614h325q-5 19 -14 37t-26.5 38t-49.5 32t-74 12q-129 0 -161 -119zM614 1266q0 76 54 129t129 53q77 0 130.5 -53t53.5 -129t-53.5 -129.5t-130.5 -53.5q-75 0 -129 53.5t-54 129.5z" />
<glyph unicode="&#xec;" d="M-133 1434h317l246 -295h-246zM102 0v989h369v-989h-369z" />
<glyph unicode="&#xed;" d="M102 0v989h369v-989h-369zM145 1139l246 295h318l-318 -295h-246z" />
<glyph unicode="&#xee;" d="M-55 1139l180 295h319l187 -295h-215l-131 149l-125 -149h-215zM102 0v989h369v-989h-369z" />
<glyph unicode="&#xef;" d="M-117 1266q0 76 53 129t130 53q76 0 129 -53t53 -129q0 -77 -53 -130t-129 -53t-129.5 53.5t-53.5 129.5zM102 0v989h369v-989h-369zM326 1266q0 76 53.5 129t128.5 53q77 0 130.5 -53t53.5 -129t-53.5 -129.5t-130.5 -53.5q-75 0 -128.5 53.5t-53.5 129.5z" />
<glyph unicode="&#xf0;" horiz-adv-x="1181" d="M35 440q0 204 124 333.5t302 129.5q219 0 332 -196q-44 141 -316 329l-305 -135l-66 160l199 86l-96 57l197 293q136 -81 274 -184l203 88l67 -154l-125 -55q162 -151 242 -313.5t80 -350.5q0 -254 -147.5 -403.5t-409.5 -149.5q-250 0 -402.5 128.5t-152.5 336.5z M414 440q0 -63 46.5 -101t129.5 -38q84 0 131 38t47 101t-47 101.5t-131 38.5q-83 0 -129.5 -38.5t-46.5 -101.5z" />
<glyph unicode="&#xf1;" horiz-adv-x="1243" d="M102 0v989h369v-112q50 58 135.5 97.5t204.5 39.5q164 0 247 -87t83 -225v-702h-369v547q0 141 -143 141q-56 0 -91.5 -21.5t-66.5 -56.5v-610h-369zM274 1147q0 274 242 274q43 0 80.5 -13.5t59 -30.5t44.5 -30.5t41 -13.5q21 0 35.5 19.5t14.5 56.5h182 q0 -274 -242 -274q-55 0 -99 22t-74.5 44t-51.5 22t-35 -19.5t-14 -56.5h-183z" />
<glyph unicode="&#xf2;" horiz-adv-x="1181" d="M35 496q0 104 38 197.5t107.5 165t175.5 113.5t234 42t235 -42t176.5 -113.5t107.5 -165t38 -197.5t-38 -198t-107.5 -166t-176.5 -114.5t-235 -42.5t-234 42.5t-175.5 114.5t-107.5 166t-38 198zM168 1434h317l246 -295h-246zM414 496q0 -86 46.5 -140.5t129.5 -54.5 q84 0 131 54.5t47 140.5q0 85 -47 138.5t-131 53.5q-82 0 -129 -54t-47 -138z" />
<glyph unicode="&#xf3;" horiz-adv-x="1181" d="M35 496q0 104 38 197.5t107.5 165t175.5 113.5t234 42t235 -42t176.5 -113.5t107.5 -165t38 -197.5t-38 -198t-107.5 -166t-176.5 -114.5t-235 -42.5t-234 42.5t-175.5 114.5t-107.5 166t-38 198zM414 496q0 -86 46.5 -140.5t129.5 -54.5q84 0 131 54.5t47 140.5 q0 85 -47 138.5t-131 53.5q-82 0 -129 -54t-47 -138zM446 1139l246 295h318l-318 -295h-246z" />
<glyph unicode="&#xf4;" horiz-adv-x="1181" d="M35 496q0 104 38 197.5t107.5 165t175.5 113.5t234 42t235 -42t176.5 -113.5t107.5 -165t38 -197.5t-38 -198t-107.5 -166t-176.5 -114.5t-235 -42.5t-234 42.5t-175.5 114.5t-107.5 166t-38 198zM250 1139l180 295h320l186 -295h-215l-131 149l-125 -149h-215zM414 496 q0 -86 46.5 -140.5t129.5 -54.5q84 0 131 54.5t47 140.5q0 85 -47 138.5t-131 53.5q-82 0 -129 -54t-47 -138z" />
<glyph unicode="&#xf5;" horiz-adv-x="1181" d="M35 496q0 104 38 197.5t107.5 165t175.5 113.5t234 42t235 -42t176.5 -113.5t107.5 -165t38 -197.5t-38 -198t-107.5 -166t-176.5 -114.5t-235 -42.5t-234 42.5t-175.5 114.5t-107.5 166t-38 198zM242 1147q0 274 241 274q43 0 81 -13.5t59.5 -30.5t44.5 -30.5t41 -13.5 q21 0 35 19.5t14 56.5h182q0 -274 -242 -274q-43 0 -80.5 13.5t-59 30.5t-44.5 30.5t-41 13.5q-21 0 -35 -19.5t-14 -56.5h-182zM414 496q0 -86 46.5 -140.5t129.5 -54.5q84 0 131 54.5t47 140.5q0 85 -47 138.5t-131 53.5q-82 0 -129 -54t-47 -138z" />
<glyph unicode="&#xf6;" horiz-adv-x="1181" d="M35 496q0 104 38 197.5t107.5 165t175.5 113.5t234 42t235 -42t176.5 -113.5t107.5 -165t38 -197.5t-38 -198t-107.5 -166t-176.5 -114.5t-235 -42.5t-234 42.5t-175.5 114.5t-107.5 166t-38 198zM186 1266q0 76 53 129t130 53t129.5 -53t52.5 -129q0 -77 -53 -130 t-129 -53q-77 0 -130 53.5t-53 129.5zM414 496q0 -86 46.5 -140.5t129.5 -54.5q84 0 131 54.5t47 140.5q0 85 -47 138.5t-131 53.5q-82 0 -129 -54t-47 -138zM629 1266q0 76 53.5 129t128.5 53q77 0 130.5 -53t53.5 -129t-53.5 -129.5t-130.5 -53.5q-75 0 -128.5 53.5 t-53.5 129.5z" />
<glyph unicode="&#xf8;" horiz-adv-x="1181" d="M35 0l131 145q-131 143 -131 351q0 104 38 197.5t107.5 165t175.5 113.5t234 42q168 0 299 -72l43 47h215l-133 -145q133 -145 133 -348q0 -104 -38 -198t-107.5 -166t-176.5 -114.5t-235 -42.5q-172 0 -301 74l-45 -49h-209zM414 496q0 -41 8 -68l227 252q-24 8 -59 8 q-82 0 -129 -54t-47 -138zM526 311q30 -10 64 -10q84 0 131 54.5t47 140.5q0 34 -10 67z" />
<glyph unicode="&#xf9;" horiz-adv-x="1241" d="M102 283v706h369v-549q0 -139 143 -139q38 0 70.5 13.5t49 27.5t36.5 37v610h369v-989h-369v111q-51 -57 -136 -96.5t-204 -39.5q-163 0 -245.5 86t-82.5 222zM199 1434h317l246 -295h-246z" />
<glyph unicode="&#xfa;" horiz-adv-x="1241" d="M102 283v706h369v-549q0 -139 143 -139q38 0 70.5 13.5t49 27.5t36.5 37v610h369v-989h-369v111q-51 -57 -136 -96.5t-204 -39.5q-163 0 -245.5 86t-82.5 222zM477 1139l246 295h317l-317 -295h-246z" />
<glyph unicode="&#xfb;" horiz-adv-x="1241" d="M102 283v706h369v-549q0 -139 143 -139q38 0 70.5 13.5t49 27.5t36.5 37v610h369v-989h-369v111q-51 -57 -136 -96.5t-204 -39.5q-163 0 -245.5 86t-82.5 222zM283 1139l180 295h319l187 -295h-215l-131 149l-125 -149h-215z" />
<glyph unicode="&#xfc;" horiz-adv-x="1241" d="M102 283v706h369v-549q0 -139 143 -139q38 0 70.5 13.5t49 27.5t36.5 37v610h369v-989h-369v111q-51 -57 -136 -96.5t-204 -39.5q-163 0 -245.5 86t-82.5 222zM221 1266q0 76 52.5 129t129.5 53t130 -53t53 -129t-53 -129.5t-130 -53.5q-76 0 -129 53t-53 130zM664 1266 q0 76 53.5 129t128.5 53q77 0 130.5 -53t53.5 -129t-53.5 -129.5t-130.5 -53.5q-75 0 -128.5 53.5t-53.5 129.5z" />
<glyph unicode="&#xfd;" horiz-adv-x="1095" d="M-31 989h389l189 -565l190 565h389l-430 -1112q-32 -83 -78 -138.5t-108 -84.5t-125 -41t-149 -14q-88 0 -144 16l51 328q36 -19 78 -19q112 0 129 39l8 21zM403 1139l246 295h318l-318 -295h-246z" />
<glyph unicode="&#xfe;" horiz-adv-x="1218" d="M102 -377v1743h369v-481q110 129 279 129q191 0 312.5 -136t121.5 -382q0 -247 -121.5 -384t-312.5 -137q-166 0 -279 129v-481h-369zM471 369q24 -29 69.5 -48.5t82.5 -19.5q77 0 130.5 52.5t53.5 142.5q0 89 -53.5 140.5t-130.5 51.5q-38 0 -82.5 -18.5t-69.5 -48.5 v-252z" />
<glyph unicode="&#xff;" horiz-adv-x="1095" d="M-31 989h389l189 -565l190 565h389l-430 -1112q-32 -83 -78 -138.5t-108 -84.5t-125 -41t-149 -14q-88 0 -144 16l51 328q36 -19 78 -19q112 0 129 39l8 21zM143 1266q0 76 53 129t130 53q76 0 129 -53t53 -129q0 -77 -53 -130t-129 -53t-129.5 53.5t-53.5 129.5z M586 1266q0 76 53.5 129t128.5 53q77 0 130.5 -53t53.5 -129t-53.5 -129.5t-130.5 -53.5q-75 0 -128.5 53.5t-53.5 129.5z" />
<glyph unicode="&#x131;" d="M102 0v989h369v-989h-369z" />
<glyph unicode="&#x153;" horiz-adv-x="1845" d="M35 496q0 104 38 197.5t107.5 165t175.5 113.5t234 42q115 0 200 -42.5t164 -115.5q150 158 353 158q224 0 369 -151t145 -406v-76h-672q25 -51 80 -89t143 -38q57 0 114.5 19.5t94.5 50.5l160 -226q-70 -60 -187 -91.5t-235 -31.5q-122 0 -205 41t-162 115 q-156 -156 -362 -156q-128 0 -234 42.5t-175.5 114.5t-107.5 166t-38 198zM414 496q0 -95 49.5 -146t126.5 -51q78 0 128 51t50 146q0 93 -49.5 142.5t-128.5 49.5q-77 0 -126.5 -49.5t-49.5 -142.5zM1145 614h325q-5 20 -13.5 38t-26.5 38t-49.5 32.5t-73.5 12.5 q-75 0 -112.5 -36.5t-49.5 -84.5z" />
<glyph unicode="&#x192;" horiz-adv-x="976" d="M-20 -330l174 787h-82v319h151l58 260q34 153 161.5 251.5t292.5 98.5q194 0 289 -100l-145 -301q-30 41 -88 41q-37 0 -67 -22.5t-40 -63.5l-37 -164h178v-319h-247l-177 -787h-421z" />
<glyph unicode="&#x2c6;" horiz-adv-x="686" d="M0 1139l180 295h320l186 -295h-215l-131 149l-125 -149h-215z" />
<glyph unicode="&#x2da;" horiz-adv-x="454" d="M0 1292q0 94 67.5 162t161.5 68q93 0 159.5 -68t66.5 -162t-66.5 -161.5t-159.5 -67.5q-94 0 -161.5 67.5t-67.5 161.5zM158 1292q0 -29 21 -50t50 -21t49.5 21t20.5 50t-20.5 50.5t-49.5 21.5t-50 -21.5t-21 -50.5z" />
<glyph unicode="&#x2dc;" horiz-adv-x="698" d="M0 1147q0 274 242 274q43 0 80.5 -13.5t59 -30.5t44.5 -30.5t41 -13.5q21 0 35 19.5t14 56.5h182q0 -274 -241 -274q-43 0 -81 13.5t-59.5 30.5t-44.5 30.5t-41 13.5q-21 0 -35 -19.5t-14 -56.5h-182z" />
<glyph unicode="&#x401;" horiz-adv-x="1220" d="M111 0v1366h1036v-360h-623v-136h609v-360h-609v-150h623v-360h-1036zM225 1608q0 76 53 129t130 53q76 0 129 -53t53 -129q0 -77 -53 -130t-129 -53t-129.5 53.5t-53.5 129.5zM668 1608q0 76 53.5 129t128.5 53q77 0 130.5 -53t53.5 -129t-53.5 -129.5t-130.5 -53.5 q-75 0 -128.5 53.5t-53.5 129.5z" />
<glyph unicode="&#x402;" horiz-adv-x="1648" d="M37 1006v360h1145v-360h-365v-148q161 31 260 31q272 0 409.5 -126t137.5 -343v-12q0 -188 -144.5 -310.5t-379.5 -122.5v340q52 0 78 26.5t26 68.5v6q0 55 -51.5 83.5t-136.5 28.5q-116 0 -199 -30v-498h-414v1006h-366z" />
<glyph unicode="&#x403;" horiz-adv-x="1212" d="M111 0v1366h1036v-360h-623v-1006h-413zM487 1481l246 295h318l-318 -295h-246z" />
<glyph unicode="&#x404;" horiz-adv-x="1427" d="M37 682q0 207 98.5 369t269 250t383.5 88q103 0 193.5 -23.5t156 -62t120 -92t90 -107t61.5 -113.5l-356 -166q-28 84 -104.5 141.5t-176.5 57.5q-192 0 -274 -154h460v-360h-469q37 -80 108 -125t175 -45q100 0 176.5 57.5t104.5 141.5l356 -164q-26 -59 -61 -112 t-89.5 -107t-120 -93t-156.5 -63.5t-194 -24.5q-213 0 -384 88.5t-269 250.5t-98 368z" />
<glyph unicode="&#x405;" horiz-adv-x="1255" d="M6 193l215 307q82 -79 196 -127.5t245 -48.5q65 0 108 18t43 55q0 21 -26 35t-70 23.5t-101.5 19t-120.5 23.5t-126 33.5t-120.5 53.5t-101.5 79t-70 114.5t-26 155.5q0 88 36.5 168.5t105.5 144t179 101.5t246 38q347 0 580 -190l-221 -293q-86 65 -193.5 100t-208.5 35 q-104 0 -104 -61q0 -20 26 -35t70 -25t101 -20.5t120 -25t126 -34.5t120 -53t101 -76.5t70 -109.5t26 -147q0 -225 -157 -350.5t-433 -125.5q-394 0 -635 218z" />
<glyph unicode="&#x406;" horiz-adv-x="634" d="M111 0v1366h413v-1366h-413z" />
<glyph unicode="&#x407;" horiz-adv-x="634" d="M-86 1608q0 76 53 129t129 53q77 0 130 -53t53 -129t-53.5 -129.5t-129.5 -53.5t-129 53t-53 130zM111 0v1366h413v-1366h-413zM356 1608q0 76 54 129t129 53q77 0 130.5 -53t53.5 -129t-53.5 -129.5t-130.5 -53.5q-75 0 -129 53.5t-54 129.5z" />
<glyph unicode="&#x408;" horiz-adv-x="1019" d="M0 86l168 315q89 -61 176 -61q68 0 110 41.5t42 112.5v872h413v-879q0 -255 -141 -383.5t-387 -128.5q-238 0 -381 111z" />
<glyph unicode="&#x409;" horiz-adv-x="2258" d="M41 -25v365q94 0 152.5 76.5t82.5 261.5l84 688h1067v-430h316q154 0 267.5 -64.5t168.5 -169t55 -233.5q0 -130 -55 -235t-168.5 -169.5t-267.5 -64.5h-729v1006h-281l-45 -359q-19 -158 -62.5 -276.5t-102 -193t-137.5 -120.5t-161.5 -64t-183.5 -18zM1427 360h263 q55 0 90 28t35 81q0 52 -35 79t-90 27h-263v-215z" />
<glyph unicode="&#x40a;" horiz-adv-x="2258" d="M111 0v1366h413v-483h490v483h413v-483h342q147 0 254 -61t159 -159.5t52 -220.5q0 -123 -52 -222t-159 -159.5t-254 -60.5h-755v522h-490v-522h-413zM1427 360h293q41 0 68 21.5t27 60.5t-27 59.5t-68 20.5h-293v-162z" />
<glyph unicode="&#x40b;" horiz-adv-x="1734" d="M37 1006v360h1145v-360h-365v-148q161 31 260 31q272 0 409.5 -142t137.5 -387v-360h-420v360q0 93 -49 130.5t-139 37.5q-116 0 -199 -30v-498h-414v1006h-366z" />
<glyph unicode="&#x40c;" horiz-adv-x="1374" d="M111 0v1366h413v-512l359 512h506l-517 -635l539 -731h-504l-307 481l-76 -102v-379h-413zM582 1481l245 295h318l-318 -295h-245z" />
<glyph unicode="&#x40e;" horiz-adv-x="1359" d="M-35 86l168 315q89 -61 176 -61q52 0 83 16t54 50l-481 960h463l252 -555l254 555h463l-547 -1092q-151 -299 -504 -299q-238 0 -381 111zM319 1595l156 127q77 -108 205 -108q129 0 205 108l153 -127q-62 -84 -155.5 -132t-202.5 -48q-108 0 -202.5 48t-158.5 132z" />
<glyph unicode="&#x40f;" horiz-adv-x="1538" d="M111 0v1366h413v-1006h490v1006h413v-1366h-450v-252h-414v252h-452z" />
<glyph unicode="&#x410;" horiz-adv-x="1454" d="M-37 0l504 1366h520l504 -1366h-469l-49 160h-492l-49 -160h-469zM592 520h270l-135 441z" />
<glyph unicode="&#x411;" horiz-adv-x="1355" d="M111 0v1366h1138v-360h-725v-109h336q112 0 202.5 -35t148.5 -96.5t89 -142t31 -172.5q0 -93 -31 -174.5t-89 -143.5t-148.5 -97.5t-202.5 -35.5h-749zM524 360h285q45 0 73.5 23t28.5 66t-28.5 65.5t-73.5 22.5h-285v-177z" />
<glyph unicode="&#x412;" horiz-adv-x="1427" d="M111 0v1366h829q102 0 182.5 -31.5t127.5 -83t71.5 -111.5t24.5 -122q0 -124 -65.5 -207t-168.5 -106q112 -18 186 -111t74 -223q0 -73 -25 -138.5t-73 -118t-127 -83.5t-178 -31h-858zM524 344h332q44 0 70 23.5t26 62.5q0 38 -26.5 63t-69.5 25h-332v-174zM524 862h320 q33 0 57.5 23t24.5 59q0 34 -24.5 56t-57.5 22h-320v-160z" />
<glyph unicode="&#x413;" horiz-adv-x="1212" d="M111 0v1366h1036v-360h-623v-1006h-413z" />
<glyph unicode="&#x414;" horiz-adv-x="1572" d="M41 -252v592q51 9 85 26t65.5 53.5t52 100t32.5 158.5l84 688h1067v-1006h119v-612h-413v252h-678v-252h-414zM555 360h459v646h-281l-45 -359q-20 -170 -133 -287z" />
<glyph unicode="&#x415;" horiz-adv-x="1220" d="M111 0v1366h1036v-360h-623v-136h609v-360h-609v-150h623v-360h-1036z" />
<glyph unicode="&#x416;" horiz-adv-x="2031" d="M-37 0l539 731l-516 635h506l317 -455v455h414v-455l317 455h506l-516 -635l538 -731h-503l-308 481l-34 -47v-434h-414v434l-35 47l-307 -481h-504z" />
<glyph unicode="&#x417;" horiz-adv-x="1304" d="M25 188l202 283q73 -63 187 -97t204 -34q104 0 162 26.5t58 65.5q0 25 -17 40.5t-69 24.5t-146 9h-280v360h280q98 0 153.5 18t55.5 50q0 88 -223 88q-92 0 -189 -31.5t-165 -87.5l-195 258q94 104 247.5 164.5t346.5 60.5q278 0 434 -103t156 -275q0 -109 -85.5 -195 t-215.5 -108q58 -6 114.5 -30.5t103.5 -64.5t76 -98.5t29 -126.5q0 -120 -79.5 -214t-219 -145t-315.5 -51q-197 0 -359 59t-251 154z" />
<glyph unicode="&#x418;" horiz-adv-x="1536" d="M111 0v1366h413v-729l475 729h426v-1366h-413v774l-504 -774h-397z" />
<glyph unicode="&#x419;" horiz-adv-x="1536" d="M111 0v1366h413v-729l475 729h426v-1366h-413v774l-504 -774h-397zM408 1595l155 127q77 -108 205 -108q129 0 205 108l153 -127q-62 -84 -155.5 -132t-202.5 -48q-107 0 -201.5 48t-158.5 132z" />
<glyph unicode="&#x41a;" horiz-adv-x="1374" d="M111 0v1366h413v-512l359 512h506l-517 -635l539 -731h-504l-307 481l-76 -102v-379h-413z" />
<glyph unicode="&#x41b;" horiz-adv-x="1538" d="M41 -25v365q94 0 152.5 76.5t82.5 261.5l84 688h1067v-1366h-413v1006h-281l-45 -359q-19 -158 -62.5 -276.5t-102 -193t-137.5 -120.5t-161.5 -64t-183.5 -18z" />
<glyph unicode="&#x41c;" horiz-adv-x="1843" d="M111 0v1366h571l240 -655l239 655h572v-1366h-414v821l-305 -821h-185l-305 821v-821h-413z" />
<glyph unicode="&#x41d;" horiz-adv-x="1538" d="M111 0v1366h413v-483h490v483h413v-1366h-413v522h-490v-522h-413z" />
<glyph unicode="&#x41e;" horiz-adv-x="1568" d="M37 682q0 155 57.5 287.5t157.5 224t237.5 143.5t294.5 52t295 -52t237.5 -143.5t157.5 -224t58 -287.5t-58 -287.5t-157.5 -224t-237.5 -143.5t-295 -52t-294.5 52t-237.5 143.5t-157.5 224t-57.5 287.5zM457 682q0 -146 90.5 -244t236.5 -98t237 98t91 244t-91 244 t-237 98t-236.5 -98t-90.5 -244z" />
<glyph unicode="&#x41f;" horiz-adv-x="1538" d="M111 0v1366h1316v-1366h-413v1006h-490v-1006h-413z" />
<glyph unicode="&#x420;" horiz-adv-x="1355" d="M111 0v1366h729q154 0 267.5 -64.5t168.5 -169.5t55 -235q0 -129 -55 -233.5t-168.5 -169t-267.5 -64.5h-316v-430h-413zM524 791h262q55 0 90 27t35 79q0 53 -35 81t-90 28h-262v-215z" />
<glyph unicode="&#x421;" horiz-adv-x="1427" d="M37 682q0 207 98.5 369t269 250t383.5 88q103 0 193.5 -23.5t156 -62t120 -92t90 -107t61.5 -113.5l-356 -166q-27 83 -101.5 141t-163.5 58q-147 0 -239 -98.5t-92 -243.5t92 -243.5t239 -98.5q89 0 163.5 58t101.5 141l356 -164q-26 -59 -61 -112t-89.5 -107t-120 -93 t-156.5 -63.5t-194 -24.5q-213 0 -384 88.5t-269 250.5t-98 368z" />
<glyph unicode="&#x422;" horiz-adv-x="1218" d="M37 1006v360h1145v-360h-365v-1006h-414v1006h-366z" />
<glyph unicode="&#x423;" horiz-adv-x="1359" d="M-35 86l168 315q89 -61 176 -61q52 0 83 16t54 50l-481 960h463l252 -555l254 555h463l-547 -1092q-151 -299 -504 -299q-238 0 -381 111z" />
<glyph unicode="&#x424;" horiz-adv-x="1851" d="M37 682q0 239 176 374.5t506 166.5v143h414v-143q329 -31 505.5 -166.5t176.5 -374.5t-176.5 -375.5t-505.5 -167.5v-139h-414v139q-330 31 -506 167.5t-176 375.5zM457 682q0 -146 262 -176v352q-133 -17 -197.5 -60t-64.5 -116zM1133 506q262 30 262 176 q0 73 -64.5 116t-197.5 60v-352z" />
<glyph unicode="&#x425;" horiz-adv-x="1400" d="M-37 0l457 700l-426 666h485l221 -389l218 389h489l-426 -664l457 -702h-488l-250 418l-249 -418h-488z" />
<glyph unicode="&#x426;" horiz-adv-x="1572" d="M111 0v1366h413v-1006h490v1006h413v-1006h119v-612h-413v252h-1022z" />
<glyph unicode="&#x427;" horiz-adv-x="1415" d="M84 934v432h420v-432q0 -93 49 -130.5t139 -37.5q114 0 199 31v569h414v-1366h-414v436q-156 -30 -260 -30q-273 0 -410 141.5t-137 386.5z" />
<glyph unicode="&#x428;" horiz-adv-x="2154" d="M111 0v1366h413v-1006h346v1006h414v-1006h346v1006h414v-1366h-1933z" />
<glyph unicode="&#x429;" horiz-adv-x="2189" d="M111 0v1366h413v-1006h346v1006h414v-1006h346v1006h414v-1006h119v-612h-414v252h-1638z" />
<glyph unicode="&#x42a;" horiz-adv-x="1648" d="M37 1006v360h780v-430h316q154 0 267.5 -64.5t168.5 -169t55 -233.5q0 -130 -55 -235t-168.5 -169.5t-267.5 -64.5h-730v1006h-366zM817 360h262q55 0 90 28t35 81q0 52 -35 79t-90 27h-262v-215z" />
<glyph unicode="&#x42b;" horiz-adv-x="1939" d="M111 0v1366h413v-430h316q154 0 267.5 -64.5t168.5 -169t55 -233.5q0 -130 -55 -235t-168.5 -169.5t-267.5 -64.5h-729zM524 360h262q55 0 90 28t35 81q0 52 -35 79t-90 27h-262v-215zM1415 0v1366h414v-1366h-414z" />
<glyph unicode="&#x42c;" horiz-adv-x="1355" d="M111 0v1366h413v-430h316q154 0 267.5 -64.5t168.5 -169t55 -233.5q0 -130 -55 -235t-168.5 -169.5t-267.5 -64.5h-729zM524 360h262q55 0 90 28t35 81q0 52 -35 79t-90 27h-262v-215z" />
<glyph unicode="&#x42d;" horiz-adv-x="1427" d="M18 375l357 164q28 -84 104 -141.5t176 -57.5q103 0 174.5 45.5t106.5 124.5h-467v360h459q-37 72 -106 113t-167 41q-100 0 -176 -57.5t-104 -141.5l-357 166q26 60 61.5 113.5t90 107t120 92t156 62t193.5 23.5q213 0 384 -88t269.5 -250t98.5 -369q0 -206 -98.5 -368 t-269.5 -250.5t-384 -88.5q-103 0 -194 24.5t-156.5 63.5t-120 93t-89.5 107t-61 112z" />
<glyph unicode="&#x42e;" horiz-adv-x="2269" d="M111 0v1366h413v-483h240q64 230 261 368t460 138q157 0 294.5 -52t237.5 -143.5t157.5 -224t57.5 -287.5t-57.5 -287.5t-157.5 -224t-237.5 -143.5t-294.5 -52q-276 0 -476.5 149.5t-254.5 397.5h-230v-522h-413zM1157 682q0 -146 91 -244t237 -98t236.5 98t90.5 244 t-90.5 244t-236.5 98t-237 -98t-91 -244z" />
<glyph unicode="&#x42f;" horiz-adv-x="1388" d="M55 0l248 483q-45 22 -85 55t-78 82.5t-60.5 121t-22.5 155.5q0 97 32.5 181.5t93.5 149t155.5 101.5t210.5 37h729v-1366h-414v430h-149l-189 -430h-471zM477 899q0 -54 39 -81t96 -27h252v215h-252q-57 0 -96 -27.5t-39 -79.5z" />
<glyph unicode="&#x430;" horiz-adv-x="1144" d="M35 301q0 71 21.5 127t55.5 90.5t80 57t91 31.5t92 9q98 0 179 -29t120 -79v102q0 54 -48.5 88.5t-136.5 34.5q-69 0 -142 -26t-132 -70l-125 227q94 75 219.5 112.5t247.5 37.5q78 0 145 -11.5t131.5 -40.5t109 -74.5t72 -119.5t27.5 -170v-598h-368v94 q-41 -53 -124 -86t-175 -33q-58 0 -116 20t-109 58t-83 103t-32 145zM399 295q0 -42 38 -61t91 -19q45 0 86.5 14t59.5 39v56q-18 25 -59.5 39t-86.5 14q-53 0 -91 -20t-38 -62z" />
<glyph unicode="&#x431;" horiz-adv-x="1181" d="M35 541q0 354 136.5 537t410.5 225q50 8 83 25t33 38h410q0 -213 -391 -276q-109 -18 -179.5 -49t-104 -68.5t-48.5 -89.5q59 70 130 100.5t169 30.5q103 0 191 -42t147 -113t92 -164.5t33 -196.5q0 -105 -38 -199.5t-107.5 -166.5t-176.5 -114.5t-235 -42.5 q-171 0 -298 74.5t-192 202t-65 289.5zM414 498q0 -87 46.5 -142t129.5 -55q84 0 131 55t47 142q0 83 -47 136.5t-131 53.5q-82 0 -129 -54t-47 -136z" />
<glyph unicode="&#x432;" horiz-adv-x="1265" d="M102 0v989h713q156 0 240 -77.5t84 -176.5q0 -85 -47.5 -143.5t-124.5 -81.5q87 -17 140.5 -82.5t53.5 -157.5q0 -113 -84 -191.5t-239 -78.5h-736zM471 272h266q23 0 38.5 12.5t15.5 32.5q0 21 -15 34.5t-39 13.5h-266v-93zM471 635h252q19 0 32 12t13 29 q0 18 -12.5 29.5t-32.5 11.5h-252v-82z" />
<glyph unicode="&#x433;" horiz-adv-x="935" d="M102 0v989h803v-319h-434v-670h-369z" />
<glyph unicode="&#x434;" horiz-adv-x="1275" d="M37 -252v559q29 0 48 6.5t39 26.5t34 63.5t24 112.5l70 473h889v-670h108v-571h-368v252h-475v-252h-369zM467 319h305v351h-205l-22 -154q-18 -126 -78 -197z" />
<glyph unicode="&#x435;" horiz-adv-x="1112" d="M35 496q0 107 39.5 202t109.5 165t171 110.5t218 40.5q224 0 369 -151t145 -406v-76h-671q16 -52 72 -88.5t141 -36.5q48 0 120.5 20t106.5 50l152 -228q-70 -60 -187 -91.5t-235 -31.5q-155 0 -279.5 61.5t-198 181t-73.5 278.5zM412 614h325q-5 19 -14 37t-26.5 38 t-49.5 32t-74 12q-129 0 -161 -119z" />
<glyph unicode="&#x436;" horiz-adv-x="1626" d="M-25 0l363 539l-340 450h444l187 -289v289h368v-289l187 289h444l-340 -450l363 -539h-453l-170 319l-31 -40v-279h-368v279l-31 40l-170 -319h-453z" />
<glyph unicode="&#x437;" horiz-adv-x="1009" d="M0 131l164 215q63 -46 149 -70t160 -24q121 0 121 49q0 61 -133 61h-185v271h185q72 0 93 13.5t21 41.5q0 22 -29 35.5t-81 13.5q-172 0 -281 -100l-174 207q78 77 191 122.5t245 45.5q253 1 380.5 -73t129.5 -204q0 -79 -70.5 -142.5t-178.5 -82.5q102 -7 185 -70.5 t83 -160.5q2 -135 -135.5 -219t-366.5 -85q-151 0 -275.5 43t-197.5 113z" />
<glyph unicode="&#x438;" horiz-adv-x="1243" d="M102 0v989h369v-440l297 440h373v-989h-369v469l-317 -469h-353z" />
<glyph unicode="&#x439;" horiz-adv-x="1243" d="M102 0v989h369v-440l297 440h373v-989h-369v469l-317 -469h-353zM262 1253l156 127q77 -108 205 -108t204 108l154 -127q-62 -84 -155.5 -132t-202.5 -48q-108 0 -202.5 48t-158.5 132z" />
<glyph unicode="&#x43a;" horiz-adv-x="1140" d="M102 0v989h369v-352l227 352h445l-340 -450l362 -539h-452l-170 319l-72 -96v-223h-369z" />
<glyph unicode="&#x43b;" horiz-adv-x="1243" d="M37 -25v301q55 0 90.5 52.5t54.5 187.5l70 473h889v-989h-369v670h-205l-28 -203q-17 -118 -51 -205.5t-92 -153.5t-148 -99.5t-211 -33.5z" />
<glyph unicode="&#x43c;" horiz-adv-x="1521" d="M102 0v989h488l170 -477l172 477h487v-989h-366v539l-191 -539h-200l-191 539v-539h-369z" />
<glyph unicode="&#x43d;" horiz-adv-x="1243" d="M102 0v989h369v-313h301v313h369v-989h-369v356h-301v-356h-369z" />
<glyph unicode="&#x43e;" horiz-adv-x="1181" d="M35 496q0 104 38 197.5t107.5 165t175.5 113.5t234 42t235 -42t176.5 -113.5t107.5 -165t38 -197.5t-38 -198t-107.5 -166t-176.5 -114.5t-235 -42.5t-234 42.5t-175.5 114.5t-107.5 166t-38 198zM414 496q0 -86 46.5 -140.5t129.5 -54.5q84 0 131 54.5t47 140.5 q0 85 -47 138.5t-131 53.5q-82 0 -129 -54t-47 -138z" />
<glyph unicode="&#x43f;" horiz-adv-x="1243" d="M102 0v989h1039v-989h-369v670h-301v-670h-369z" />
<glyph unicode="&#x440;" horiz-adv-x="1218" d="M102 -377v1366h369v-104q110 129 279 129q191 0 312.5 -136t121.5 -382q0 -247 -121.5 -384t-312.5 -137q-166 0 -279 129v-481h-369zM471 369q24 -29 69.5 -48.5t82.5 -19.5q77 0 130.5 52.5t53.5 142.5q0 89 -53.5 140.5t-130.5 51.5q-38 0 -82.5 -18.5t-69.5 -48.5 v-252z" />
<glyph unicode="&#x441;" horiz-adv-x="1028" d="M35 496q0 153 73.5 272t199.5 182.5t282 63.5q154 0 262.5 -56t157.5 -131l-238 -223q-25 38 -67.5 61t-98.5 23q-83 0 -138.5 -50.5t-55.5 -141.5t56 -143t138 -52q55 0 97.5 24.5t68.5 61.5l238 -225q-50 -74 -158.5 -130.5t-261.5 -56.5q-156 0 -282 64t-199.5 183.5 t-73.5 273.5z" />
<glyph unicode="&#x442;" horiz-adv-x="954" d="M31 670v319h893v-319h-260v-670h-369v670h-264z" />
<glyph unicode="&#x443;" horiz-adv-x="1095" d="M-31 989h389l189 -565l190 565h389l-430 -1112q-32 -83 -78 -138.5t-108 -84.5t-125 -41t-149 -14q-88 0 -144 16l51 328q36 -19 78 -19q112 0 129 39l8 21z" />
<glyph unicode="&#x444;" horiz-adv-x="1757" d="M35 494q0 247 112 383.5t289 136.5q154 0 258 -129v481h369v-481q102 129 258 129q177 0 289 -136t112 -382q0 -247 -112 -384t-289 -137q-154 0 -258 129v-481h-369v481q-102 -129 -258 -129q-177 0 -289 136.5t-112 382.5zM406 494q0 -89 45.5 -141t111.5 -52 q33 0 71 18.5t60 49.5v252q-21 29 -59.5 48t-71.5 19q-66 0 -111.5 -52t-45.5 -142zM1063 369q21 -30 60 -49t71 -19q66 0 112 52.5t46 142.5q0 89 -46 140.5t-112 51.5q-33 0 -71 -18t-60 -49v-252z" />
<glyph unicode="&#x445;" horiz-adv-x="1067" d="M-25 0l324 508l-303 481h403l133 -231l134 231h403l-303 -481l326 -508h-404l-153 262l-158 -262h-402z" />
<glyph unicode="&#x446;" horiz-adv-x="1275" d="M102 0v989h369v-670h301v670h369v-670h108v-571h-368v252h-779z" />
<glyph unicode="&#x447;" horiz-adv-x="1222" d="M82 598v391h369v-276q0 -142 143 -142q91 0 158 43v375h368v-989h-368v324q-49 -32 -128.5 -55t-172.5 -23q-369 0 -369 352z" />
<glyph unicode="&#x448;" horiz-adv-x="1835" d="M102 0v989h369v-670h262v670h369v-670h262v670h369v-989h-1631z" />
<glyph unicode="&#x449;" horiz-adv-x="1867" d="M102 0v989h369v-670h262v670h369v-670h262v670h369v-670h108v-571h-368v252h-1371z" />
<glyph unicode="&#x44a;" horiz-adv-x="1388" d="M31 670v319h633v-295h311q181 0 280 -99.5t99 -248.5q0 -145 -103 -245.5t-276 -100.5h-680v670h-264zM664 289h241q34 0 55 16t21 41q0 26 -21 43t-55 17h-241v-117z" />
<glyph unicode="&#x44b;" horiz-adv-x="1716" d="M102 0v989h369v-295h311q181 0 280 -99.5t99 -248.5q0 -145 -103 -245.5t-276 -100.5h-680zM471 289h242q33 0 54 16t21 41q0 26 -20.5 43t-54.5 17h-242v-117zM1245 0v989h369v-989h-369z" />
<glyph unicode="&#x44c;" horiz-adv-x="1196" d="M102 0v989h369v-295h311q181 0 280 -99.5t99 -248.5q0 -145 -103 -245.5t-276 -100.5h-680zM471 289h242q33 0 54 16t21 41q0 26 -20.5 43t-54.5 17h-242v-117z" />
<glyph unicode="&#x44d;" horiz-adv-x="1028" d="M18 162l224 186q67 -96 172 -96q61 0 109.5 33.5t72.5 95.5h-285v233h283q-24 59 -71.5 90t-108.5 31q-105 0 -172 -92l-224 184q49 75 157.5 131t262.5 56q156 0 282 -63.5t199.5 -182.5t73.5 -272q0 -154 -73.5 -273.5t-199.5 -183.5t-282 -64q-153 0 -261.5 56.5 t-158.5 130.5z" />
<glyph unicode="&#x44e;" horiz-adv-x="1748" d="M102 0v989h369v-313h162q55 152 191 245t333 93q128 0 235 -42t176.5 -113.5t107.5 -165t38 -197.5t-38 -198t-107.5 -166t-176.5 -114.5t-235 -42.5q-211 0 -352.5 106.5t-186.5 274.5h-147v-356h-369zM981 496q0 -86 46.5 -140.5t129.5 -54.5q84 0 131 54.5t47 140.5 q0 85 -47 138.5t-131 53.5q-82 0 -129 -54t-47 -138z" />
<glyph unicode="&#x44f;" horiz-adv-x="1232" d="M80 0l194 332q-32 14 -62 36.5t-61 59t-50 92.5t-19 123q0 145 103 245.5t276 100.5h680v-989h-369v295h-145l-138 -295h-409zM455 643q0 -26 20.5 -42.5t54.5 -16.5h242v116h-242q-33 0 -54 -16t-21 -41z" />
<glyph unicode="&#x451;" horiz-adv-x="1112" d="M35 496q0 107 39.5 202t109.5 165t171 110.5t218 40.5q224 0 369 -151t145 -406v-76h-671q16 -52 72 -88.5t141 -36.5q48 0 120.5 20t106.5 50l152 -228q-70 -60 -187 -91.5t-235 -31.5q-155 0 -279.5 61.5t-198 181t-73.5 278.5zM176 1266q0 76 53 129t129 53 q77 0 130 -53t53 -129t-53.5 -129.5t-129.5 -53.5t-129 53t-53 130zM412 614h325q-5 19 -14 37t-26.5 38t-49.5 32t-74 12q-129 0 -161 -119zM618 1266q0 76 54 129t129 53q77 0 130.5 -53t53.5 -129t-53.5 -129.5t-130.5 -53.5q-75 0 -129 53.5t-54 129.5z" />
<glyph unicode="&#x452;" horiz-adv-x="1255" d="M14 1067v199h101v100h368v-100h275v-199h-275v-190q50 58 135.5 97.5t204.5 39.5q164 0 247 -85t83 -222v-664q0 -201 -103 -322.5t-309 -121.5q-107 0 -159.5 14t-116.5 53l88 273q31 -23 55.5 -31t67.5 -8q52 0 80 36.5t28 106.5v508q0 73 -36.5 105t-106.5 32 q-56 0 -91.5 -21.5t-66.5 -56.5v-610h-368v1067h-101z" />
<glyph unicode="&#x453;" horiz-adv-x="935" d="M102 0v989h803v-319h-434v-670h-369zM365 1139l245 295h318l-318 -295h-245z" />
<glyph unicode="&#x454;" horiz-adv-x="1028" d="M35 496q0 153 73.5 272t199.5 182.5t282 63.5q154 0 262.5 -56t157.5 -131l-224 -184q-67 92 -172 92q-61 0 -109.5 -31t-72.5 -90h285v-233h-287q24 -62 73 -95.5t111 -33.5q105 0 172 96l224 -186q-50 -74 -158.5 -130.5t-261.5 -56.5q-156 0 -282 64t-199.5 183.5 t-73.5 273.5z" />
<glyph unicode="&#x455;" horiz-adv-x="1003" d="M18 127l148 248q61 -47 168 -86t188 -39q99 0 99 43q0 18 -31 28.5t-80.5 17t-109.5 15t-120 29.5t-109.5 54t-80.5 94t-31 145q0 141 118.5 239.5t324.5 98.5q236 0 428 -127l-135 -240q-50 42 -130 72.5t-161 30.5q-39 0 -65.5 -12.5t-26.5 -30.5q0 -14 24 -23.5 t63.5 -14t90 -14t103 -20.5t103 -36.5t90 -60t63.5 -92t24 -131.5q0 -151 -126.5 -245.5t-342.5 -94.5q-135 0 -270.5 42.5t-215.5 109.5z" />
<glyph unicode="&#x456;" d="M80 1268q0 86 60.5 146.5t146.5 60.5t146.5 -60.5t60.5 -146.5t-60.5 -146.5t-146.5 -60.5t-146.5 60.5t-60.5 146.5zM102 0v989h369v-989h-369z" />
<glyph unicode="&#x457;" d="M-117 1266q0 76 53 129t130 53q76 0 129 -53t53 -129q0 -77 -53 -130t-129 -53t-129.5 53.5t-53.5 129.5zM102 0v989h369v-989h-369zM326 1266q0 76 53.5 129t128.5 53q77 0 130.5 -53t53.5 -129t-53.5 -129.5t-130.5 -53.5q-75 0 -128.5 53.5t-53.5 129.5z" />
<glyph unicode="&#x458;" d="M-217 -334l88 273q31 -23 55.5 -31t67.5 -8q52 0 80 36.5t28 106.5v946h369v-946q0 -201 -103 -322.5t-309 -121.5q-107 0 -159.5 14t-116.5 53zM80 1268q0 86 60.5 146.5t146.5 60.5t146.5 -60.5t60.5 -146.5t-60.5 -146.5t-146.5 -60.5t-146.5 60.5t-60.5 146.5z" />
<glyph unicode="&#x459;" horiz-adv-x="1865" d="M37 -25v301q55 0 90.5 52.5t54.5 187.5l70 473h889v-295h311q181 0 280 -99.5t99 -248.5q0 -145 -103 -245.5t-276 -100.5h-680v670h-205l-28 -203q-17 -118 -51 -205.5t-92 -153.5t-148 -99.5t-211 -33.5zM1141 289h241q34 0 55 16t21 41q0 26 -21 43t-55 17h-241v-117z " />
<glyph unicode="&#x45a;" horiz-adv-x="1865" d="M102 0v989h369v-295h301v295h369v-295h311q181 0 280 -99.5t99 -248.5q0 -145 -103 -245.5t-276 -100.5h-680v375h-301v-375h-369zM1141 289h241q34 0 55 16t21 41q0 26 -21 43t-55 17h-241v-117z" />
<glyph unicode="&#x45b;" horiz-adv-x="1255" d="M14 1067v199h101v100h368v-100h275v-199h-275v-190q50 58 135.5 97.5t204.5 39.5q164 0 247 -85t83 -222v-707h-369v551q0 73 -36.5 105t-106.5 32q-56 0 -91.5 -21.5t-66.5 -56.5v-610h-368v1067h-101z" />
<glyph unicode="&#x45c;" horiz-adv-x="1140" d="M102 0v989h369v-352l227 352h445l-340 -450l362 -539h-452l-170 319l-72 -96v-223h-369zM432 1139l246 295h317l-317 -295h-246z" />
<glyph unicode="&#x45e;" horiz-adv-x="1095" d="M-31 989h389l189 -565l190 565h389l-430 -1112q-32 -83 -78 -138.5t-108 -84.5t-125 -41t-149 -14q-88 0 -144 16l51 328q36 -19 78 -19q112 0 129 39l8 21zM188 1253l156 127q77 -108 205 -108q129 0 205 108l153 -127q-62 -84 -155.5 -132t-202.5 -48q-108 0 -202.5 48 t-158.5 132z" />
<glyph unicode="&#x45f;" horiz-adv-x="1243" d="M102 0v989h369v-670h301v670h369v-989h-336v-252h-369v252h-334z" />
<glyph unicode="&#x490;" horiz-adv-x="1212" d="M111 0v1366h622v252h414v-612h-623v-1006h-413z" />
<glyph unicode="&#x491;" horiz-adv-x="935" d="M102 0v989h435v252h368v-571h-434v-670h-369z" />
<glyph unicode="&#x2000;" horiz-adv-x="895" />
<glyph unicode="&#x2001;" horiz-adv-x="1790" />
<glyph unicode="&#x2002;" horiz-adv-x="895" />
<glyph unicode="&#x2003;" horiz-adv-x="1790" />
<glyph unicode="&#x2004;" horiz-adv-x="596" />
<glyph unicode="&#x2005;" horiz-adv-x="447" />
<glyph unicode="&#x2006;" horiz-adv-x="298" />
<glyph unicode="&#x2007;" horiz-adv-x="298" />
<glyph unicode="&#x2008;" horiz-adv-x="223" />
<glyph unicode="&#x2009;" horiz-adv-x="358" />
<glyph unicode="&#x200a;" horiz-adv-x="99" />
<glyph unicode="&#x2010;" horiz-adv-x="614" d="M61 342v307h492v-307h-492z" />
<glyph unicode="&#x2011;" horiz-adv-x="614" d="M61 342v307h492v-307h-492z" />
<glyph unicode="&#x2012;" horiz-adv-x="614" d="M61 342v307h492v-307h-492z" />
<glyph unicode="&#x2013;" horiz-adv-x="1214" d="M61 342v307h1092v-307h-1092z" />
<glyph unicode="&#x2014;" horiz-adv-x="1705" d="M61 342v307h1584v-307h-1584z" />
<glyph unicode="&#x2018;" horiz-adv-x="575" d="M61 938q0 133 67 249t189 202l150 -121q-52 -23 -109.5 -82t-76.5 -115q20 8 53 8q75 0 126.5 -53t51.5 -137q0 -89 -63 -152t-150 -63q-99 0 -168.5 71.5t-69.5 192.5z" />
<glyph unicode="&#x2019;" horiz-adv-x="575" d="M70 1171q0 89 63 152t150 63q98 0 167.5 -71.5t69.5 -192.5q0 -133 -67 -248.5t-189 -201.5l-149 121q52 23 109.5 81.5t76.5 114.5q-20 -8 -53 -8q-75 0 -126.5 53t-51.5 137z" />
<glyph unicode="&#x201a;" horiz-adv-x="575" d="M70 199q0 89 63 152t150 63q98 0 167.5 -71.5t69.5 -192.5q0 -133 -67 -249t-189 -202l-149 121q52 23 109.5 81.5t76.5 114.5q-20 -8 -53 -8q-75 0 -126.5 53t-51.5 138z" />
<glyph unicode="&#x201c;" horiz-adv-x="1081" d="M53 938q0 133 67 249t189 202l150 -121q-52 -23 -110 -82t-77 -115q20 8 54 8q75 0 126.5 -53t51.5 -137q0 -89 -63 -152t-150 -63q-99 0 -168.5 71.5t-69.5 192.5zM559 938q0 133 67 249t189 202l150 -121q-52 -23 -110 -82t-77 -115q20 8 53 8q75 0 127 -53t52 -137 q0 -89 -63 -152t-150 -63q-99 0 -168.5 71.5t-69.5 192.5z" />
<glyph unicode="&#x201d;" horiz-adv-x="1081" d="M70 1171q0 89 63 152t150 63q98 0 167.5 -71.5t69.5 -192.5q0 -133 -67 -248.5t-189 -201.5l-149 121q52 23 109.5 81.5t76.5 114.5q-20 -8 -53 -8q-75 0 -126.5 53t-51.5 137zM575 1171q0 89 63 152t150 63q99 0 168.5 -71.5t69.5 -192.5q0 -133 -67 -248.5t-189 -201.5 l-149 121q52 23 109.5 81.5t76.5 114.5q-20 -8 -53 -8q-75 0 -127 53t-52 137z" />
<glyph unicode="&#x201e;" horiz-adv-x="1081" d="M70 199q0 89 63 152t150 63q98 0 167.5 -71.5t69.5 -192.5q0 -133 -67 -249t-189 -202l-149 121q52 23 109.5 81.5t76.5 114.5q-20 -8 -53 -8q-75 0 -126.5 53t-51.5 138zM575 199q0 89 63 152t150 63q99 0 168.5 -71.5t69.5 -192.5q0 -133 -67 -249t-189 -202l-149 121 q52 23 109.5 81.5t76.5 114.5q-20 -8 -53 -8q-75 0 -127 53.5t-52 137.5z" />
<glyph unicode="&#x2026;" horiz-adv-x="1732" d="M72 195q0 89 64 154t153 65t153 -65t64 -154q0 -88 -64 -153t-153 -65t-153 65t-64 153zM649 195q0 89 64 154t153 65t153 -65t64 -154q0 -88 -64 -153t-153 -65t-153 65t-64 153zM1227 195q0 89 64 154t153 65t153 -65t64 -154q0 -88 -64 -153t-153 -65t-153 65t-64 153 z" />
<glyph unicode="&#x202f;" horiz-adv-x="358" />
<glyph unicode="&#x2039;" horiz-adv-x="778" d="M61 498l328 362h328l-328 -362l328 -369h-328z" />
<glyph unicode="&#x203a;" horiz-adv-x="778" d="M61 129l328 369l-328 362h328l328 -362l-328 -369h-328z" />
<glyph unicode="&#x205f;" horiz-adv-x="447" />
<glyph unicode="&#x20ac;" horiz-adv-x="1478" d="M25 446v195h63v88h-63v195h102q74 214 266 339.5t447 125.5q103 0 193.5 -23.5t156 -62t120 -92t89.5 -106.5t61 -114l-356 -166q-27 83 -101 141t-163 58q-149 0 -242 -100h365v-195h-453q-2 -16 -2 -47q0 -29 2 -41h453v-195h-371q95 -106 248 -106q89 0 163 58 t101 141l356 -164q-26 -59 -60.5 -112t-89.5 -107t-120 -93t-156 -63.5t-194 -24.5q-257 0 -450 127t-265 344h-100z" />
<glyph unicode="&#x2122;" horiz-adv-x="929" d="M35 1313v53h311v-53h-127v-398h-57v398h-127zM420 915v451h88l131 -328l131 328h88v-451h-57v373l-154 -373h-16l-154 373v-373h-57z" />
<glyph unicode="&#x25fc;" horiz-adv-x="993" d="M0 0v993h993v-993h-993z" />
<hkern g1="afii10092,afii10094,afii10106,afii10107" 	g2="question" 	k="102" />
<hkern g1="afii10092,afii10094,afii10106,afii10107" 	g2="quotedbl,quotesingle,registered,quoteleft,quoteright,quotedblleft,quotedblright,trademark" 	k="164" />
<hkern g1="afii10092,afii10094,afii10106,afii10107" 	g2="afii10084,afii10092" 	k="102" />
<hkern g1="afii10092,afii10094,afii10106,afii10107" 	g2="C,G,O,Q,afii10053,afii10032,afii10035,afii10038" 	k="61" />
<hkern g1="afii10092,afii10094,afii10106,afii10107" 	g2="asterisk" 	k="102" />
<hkern g1="afii10092,afii10094,afii10106,afii10107" 	g2="U" 	k="61" />
<hkern g1="afii10092,afii10094,afii10106,afii10107" 	g2="T,afii10051,afii10060,afii10036,afii10041,afii10044" 	k="205" />
<hkern g1="afii10092,afii10094,afii10106,afii10107" 	g2="W" 	k="102" />
<hkern g1="afii10092,afii10094,afii10106,afii10107" 	g2="V" 	k="82" />
<hkern g1="afii10092,afii10094,afii10106,afii10107" 	g2="Y" 	k="184" />
<hkern g1="B,afii10018,afii10019,afii10025" 	g2="quotedbl,quotesingle,registered,quoteleft,quoteright,quotedblleft,quotedblright,trademark" 	k="20" />
<hkern g1="B,afii10018,afii10019,afii10025" 	g2="T,afii10051,afii10060,afii10036,afii10041,afii10044" 	k="20" />
<hkern g1="B,afii10018,afii10019,afii10025" 	g2="W" 	k="20" />
<hkern g1="B,afii10018,afii10019,afii10025" 	g2="V" 	k="41" />
<hkern g1="B,afii10018,afii10019,afii10025" 	g2="Y" 	k="61" />
<hkern g1="B,afii10018,afii10019,afii10025" 	g2="afii10069,afii10077,afii10106" 	k="20" />
<hkern g1="afii10067,afii10073" 	g2="question" 	k="102" />
<hkern g1="afii10067,afii10073" 	g2="V" 	k="41" />
<hkern g1="afii10067,afii10073" 	g2="Y" 	k="82" />
<hkern g1="C,afii10053,afii10035" 	g2="question" 	k="20" />
<hkern g1="C,afii10053,afii10035" 	g2="W" 	k="20" />
<hkern g1="C,afii10053,afii10035" 	g2="V" 	k="10" />
<hkern g1="C,afii10053,afii10035" 	g2="Y" 	k="61" />
<hkern g1="C,afii10053,afii10035" 	g2="afii10069,afii10077,afii10106" 	k="20" />
<hkern g1="C,afii10053,afii10035" 	g2="A,afii10058,afii10017,afii10021,afii10029" 	k="20" />
<hkern g1="D,O,Q,afii10032,afii10038,afii10047,afii10048" 	g2="question" 	k="61" />
<hkern g1="D,O,Q,afii10032,afii10038,afii10047,afii10048" 	g2="quotedbl,quotesingle,registered,quoteleft,quoteright,quotedblleft,quotedblright,trademark" 	k="20" />
<hkern g1="D,O,Q,afii10032,afii10038,afii10047,afii10048" 	g2="J,afii10057" 	k="41" />
<hkern g1="D,O,Q,afii10032,afii10038,afii10047,afii10048" 	g2="T,afii10051,afii10060,afii10036,afii10041,afii10044" 	k="41" />
<hkern g1="D,O,Q,afii10032,afii10038,afii10047,afii10048" 	g2="W" 	k="41" />
<hkern g1="D,O,Q,afii10032,afii10038,afii10047,afii10048" 	g2="V" 	k="41" />
<hkern g1="D,O,Q,afii10032,afii10038,afii10047,afii10048" 	g2="Y" 	k="82" />
<hkern g1="D,O,Q,afii10032,afii10038,afii10047,afii10048" 	g2="afii10069,afii10077,afii10106" 	k="61" />
<hkern g1="D,O,Q,afii10032,afii10038,afii10047,afii10048" 	g2="A,afii10058,afii10017,afii10021,afii10029" 	k="61" />
<hkern g1="D,O,Q,afii10032,afii10038,afii10047,afii10048" 	g2="Z" 	k="20" />
<hkern g1="D,O,Q,afii10032,afii10038,afii10047,afii10048" 	g2="comma,period,quotesinglbase,quotedblbase,ellipsis" 	k="41" />
<hkern g1="D,O,Q,afii10032,afii10038,afii10047,afii10048" 	g2="X,afii10062,afii10024,afii10037,afii10039" 	k="61" />
<hkern g1="F" 	g2="J,afii10057" 	k="164" />
<hkern g1="F" 	g2="afii10069,afii10077,afii10106" 	k="123" />
<hkern g1="F" 	g2="A,afii10058,afii10017,afii10021,afii10029" 	k="102" />
<hkern g1="F" 	g2="comma,period,quotesinglbase,quotedblbase,ellipsis" 	k="102" />
<hkern g1="F" 	g2="ampersand" 	k="41" />
<hkern g1="G" 	g2="question" 	k="41" />
<hkern g1="G" 	g2="T,afii10051,afii10060,afii10036,afii10041,afii10044" 	k="20" />
<hkern g1="G" 	g2="W" 	k="20" />
<hkern g1="G" 	g2="V" 	k="41" />
<hkern g1="G" 	g2="Y" 	k="61" />
<hkern g1="G" 	g2="A,afii10058,afii10017,afii10021,afii10029" 	k="20" />
<hkern g1="G" 	g2="X,afii10062,afii10024,afii10037,afii10039" 	k="20" />
<hkern g1="K,afii10061,afii10024,afii10028" 	g2="afii10084,afii10092" 	k="123" />
<hkern g1="K,afii10061,afii10024,afii10028" 	g2="C,G,O,Q,afii10053,afii10032,afii10035,afii10038" 	k="82" />
<hkern g1="K,afii10061,afii10024,afii10028" 	g2="f" 	k="82" />
<hkern g1="K,afii10061,afii10024,afii10028" 	g2="u,ugrave,uacute,ucircumflex,udieresis" 	k="41" />
<hkern g1="K,afii10061,afii10024,afii10028" 	g2="t" 	k="123" />
<hkern g1="K,afii10061,afii10024,afii10028" 	g2="w,afii10089" 	k="82" />
<hkern g1="K,afii10061,afii10024,afii10028" 	g2="v" 	k="123" />
<hkern g1="K,afii10061,afii10024,afii10028" 	g2="y,yacute,ydieresis,afii10085,afii10110" 	k="123" />
<hkern g1="K,afii10061,afii10024,afii10028" 	g2="hyphen,endash,emdash" 	k="102" />
<hkern g1="K,afii10061,afii10024,afii10028" 	g2="a,agrave,aacute,acircumflex,atilde,adieresis,aring,ae,afii10065" 	k="20" />
<hkern g1="K,afii10061,afii10024,afii10028" 	g2="c,d,e,g,o,q,cent,ccedilla,egrave,eacute,ecircumflex,edieresis,eth,ograve,oacute,ocircumflex,otilde,odieresis,oslash,oe,afii10066,afii10070,afii10080,afii10083,afii10086,afii10071,afii10101" 	k="41" />
<hkern g1="K,afii10061,afii10024,afii10028" 	g2="x,afii10072,afii10087" 	k="82" />
<hkern g1="L" 	g2="question" 	k="205" />
<hkern g1="L" 	g2="quotedbl,quotesingle,registered,quoteleft,quoteright,quotedblleft,quotedblright,trademark" 	k="307" />
<hkern g1="L" 	g2="afii10084,afii10092" 	k="143" />
<hkern g1="L" 	g2="C,G,O,Q,afii10053,afii10032,afii10035,afii10038" 	k="41" />
<hkern g1="L" 	g2="asterisk" 	k="328" />
<hkern g1="L" 	g2="U" 	k="41" />
<hkern g1="L" 	g2="T,afii10051,afii10060,afii10036,afii10041,afii10044" 	k="205" />
<hkern g1="L" 	g2="W" 	k="164" />
<hkern g1="L" 	g2="V" 	k="184" />
<hkern g1="L" 	g2="Y" 	k="266" />
<hkern g1="L" 	g2="t" 	k="82" />
<hkern g1="L" 	g2="w,afii10089" 	k="61" />
<hkern g1="L" 	g2="v" 	k="102" />
<hkern g1="L" 	g2="y,yacute,ydieresis,afii10085,afii10110" 	k="102" />
<hkern g1="P,afii10034" 	g2="J,afii10057" 	k="266" />
<hkern g1="P,afii10034" 	g2="Y" 	k="20" />
<hkern g1="P,afii10034" 	g2="afii10069,afii10077,afii10106" 	k="164" />
<hkern g1="P,afii10034" 	g2="A,afii10058,afii10017,afii10021,afii10029" 	k="143" />
<hkern g1="P,afii10034" 	g2="comma,period,quotesinglbase,quotedblbase,ellipsis" 	k="164" />
<hkern g1="P,afii10034" 	g2="X,afii10062,afii10024,afii10037,afii10039" 	k="61" />
<hkern g1="P,afii10034" 	g2="ampersand" 	k="82" />
<hkern g1="P,afii10034" 	g2="hyphen,endash,emdash" 	k="41" />
<hkern g1="P,afii10034" 	g2="a,agrave,aacute,acircumflex,atilde,adieresis,aring,ae,afii10065" 	k="41" />
<hkern g1="P,afii10034" 	g2="c,d,e,g,o,q,cent,ccedilla,egrave,eacute,ecircumflex,edieresis,eth,ograve,oacute,ocircumflex,otilde,odieresis,oslash,oe,afii10066,afii10070,afii10080,afii10083,afii10086,afii10071,afii10101" 	k="41" />
<hkern g1="R" 	g2="quotedbl,quotesingle,registered,quoteleft,quoteright,quotedblleft,quotedblright,trademark" 	k="20" />
<hkern g1="R" 	g2="T,afii10051,afii10060,afii10036,afii10041,afii10044" 	k="20" />
<hkern g1="R" 	g2="V" 	k="20" />
<hkern g1="R" 	g2="Y" 	k="41" />
<hkern g1="R" 	g2="ampersand" 	k="20" />
<hkern g1="R" 	g2="a,agrave,aacute,acircumflex,atilde,adieresis,aring,ae,afii10065" 	k="41" />
<hkern g1="R" 	g2="c,d,e,g,o,q,cent,ccedilla,egrave,eacute,ecircumflex,edieresis,eth,ograve,oacute,ocircumflex,otilde,odieresis,oslash,oe,afii10066,afii10070,afii10080,afii10083,afii10086,afii10071,afii10101" 	k="61" />
<hkern g1="R" 	g2="s,afii10073,afii10095,afii10102" 	k="41" />
<hkern g1="S,afii10054" 	g2="afii10084,afii10092" 	k="41" />
<hkern g1="S,afii10054" 	g2="T,afii10051,afii10060,afii10036,afii10041,afii10044" 	k="41" />
<hkern g1="S,afii10054" 	g2="Y" 	k="20" />
<hkern g1="S,afii10054" 	g2="t" 	k="20" />
<hkern g1="S,afii10054" 	g2="w,afii10089" 	k="20" />
<hkern g1="S,afii10054" 	g2="v" 	k="41" />
<hkern g1="S,afii10054" 	g2="y,yacute,ydieresis,afii10085,afii10110" 	k="41" />
<hkern g1="S,afii10054" 	g2="A,afii10058,afii10017,afii10021,afii10029" 	k="20" />
<hkern g1="S,afii10054" 	g2="x,afii10072,afii10087" 	k="41" />
<hkern g1="T,afii10052,afii10020,afii10036,afii10050" 	g2="C,G,O,Q,afii10053,afii10032,afii10035,afii10038" 	k="41" />
<hkern g1="T,afii10052,afii10020,afii10036,afii10050" 	g2="J,afii10057" 	k="184" />
<hkern g1="T,afii10052,afii10020,afii10036,afii10050" 	g2="f" 	k="20" />
<hkern g1="T,afii10052,afii10020,afii10036,afii10050" 	g2="u,ugrave,uacute,ucircumflex,udieresis" 	k="102" />
<hkern g1="T,afii10052,afii10020,afii10036,afii10050" 	g2="afii10069,afii10077,afii10106" 	k="205" />
<hkern g1="T,afii10052,afii10020,afii10036,afii10050" 	g2="A,afii10058,afii10017,afii10021,afii10029" 	k="123" />
<hkern g1="T,afii10052,afii10020,afii10036,afii10050" 	g2="comma,period,quotesinglbase,quotedblbase,ellipsis" 	k="205" />
<hkern g1="T,afii10052,afii10020,afii10036,afii10050" 	g2="ampersand" 	k="102" />
<hkern g1="T,afii10052,afii10020,afii10036,afii10050" 	g2="hyphen,endash,emdash" 	k="123" />
<hkern g1="T,afii10052,afii10020,afii10036,afii10050" 	g2="a,agrave,aacute,acircumflex,atilde,adieresis,aring,ae,afii10065" 	k="123" />
<hkern g1="T,afii10052,afii10020,afii10036,afii10050" 	g2="c,d,e,g,o,q,cent,ccedilla,egrave,eacute,ecircumflex,edieresis,eth,ograve,oacute,ocircumflex,otilde,odieresis,oslash,oe,afii10066,afii10070,afii10080,afii10083,afii10086,afii10071,afii10101" 	k="164" />
<hkern g1="T,afii10052,afii10020,afii10036,afii10050" 	g2="x,afii10072,afii10087" 	k="20" />
<hkern g1="T,afii10052,afii10020,afii10036,afii10050" 	g2="s,afii10073,afii10095,afii10102" 	k="143" />
<hkern g1="T,afii10052,afii10020,afii10036,afii10050" 	g2="colon,semicolon" 	k="102" />
<hkern g1="T,afii10052,afii10020,afii10036,afii10050" 	g2="S,afii10054,afii10025" 	k="20" />
<hkern g1="T,afii10052,afii10020,afii10036,afii10050" 	g2="m,n,p,r,z,ntilde,afii10067,afii10074,afii10076,afii10078,afii10079,afii10081,afii10082,afii10088,afii10090,afii10091,afii10093,afii10094,afii10096,afii10097,afii10100,afii10107,afii10193,afii10098" 	k="102" />
<hkern g1="afii10068,afii10084,afii10100,afii10098" 	g2="V" 	k="20" />
<hkern g1="afii10068,afii10084,afii10100,afii10098" 	g2="afii10069,afii10077,afii10106" 	k="102" />
<hkern g1="afii10068,afii10084,afii10100,afii10098" 	g2="A,afii10058,afii10017,afii10021,afii10029" 	k="61" />
<hkern g1="afii10068,afii10084,afii10100,afii10098" 	g2="comma,period,quotesinglbase,quotedblbase,ellipsis" 	k="123" />
<hkern g1="afii10068,afii10084,afii10100,afii10098" 	g2="ampersand" 	k="61" />
<hkern g1="J,U,afii10057" 	g2="J,afii10057" 	k="82" />
<hkern g1="J,U,afii10057" 	g2="afii10069,afii10077,afii10106" 	k="61" />
<hkern g1="J,U,afii10057" 	g2="A,afii10058,afii10017,afii10021,afii10029" 	k="82" />
<hkern g1="J,U,afii10057" 	g2="comma,period,quotesinglbase,quotedblbase,ellipsis" 	k="61" />
<hkern g1="V,afii10062,afii10037" 	g2="afii10084,afii10092" 	k="20" />
<hkern g1="V,afii10062,afii10037" 	g2="C,G,O,Q,afii10053,afii10032,afii10035,afii10038" 	k="41" />
<hkern g1="V,afii10062,afii10037" 	g2="J,afii10057" 	k="205" />
<hkern g1="V,afii10062,afii10037" 	g2="f" 	k="61" />
<hkern g1="V,afii10062,afii10037" 	g2="u,ugrave,uacute,ucircumflex,udieresis" 	k="143" />
<hkern g1="V,afii10062,afii10037" 	g2="t" 	k="41" />
<hkern g1="V,afii10062,afii10037" 	g2="w,afii10089" 	k="41" />
<hkern g1="V,afii10062,afii10037" 	g2="v" 	k="41" />
<hkern g1="V,afii10062,afii10037" 	g2="y,yacute,ydieresis,afii10085,afii10110" 	k="41" />
<hkern g1="V,afii10062,afii10037" 	g2="afii10069,afii10077,afii10106" 	k="82" />
<hkern g1="V,afii10062,afii10037" 	g2="A,afii10058,afii10017,afii10021,afii10029" 	k="82" />
<hkern g1="V,afii10062,afii10037" 	g2="comma,period,quotesinglbase,quotedblbase,ellipsis" 	k="184" />
<hkern g1="V,afii10062,afii10037" 	g2="ampersand" 	k="102" />
<hkern g1="V,afii10062,afii10037" 	g2="hyphen,endash,emdash" 	k="123" />
<hkern g1="V,afii10062,afii10037" 	g2="a,agrave,aacute,acircumflex,atilde,adieresis,aring,ae,afii10065" 	k="143" />
<hkern g1="V,afii10062,afii10037" 	g2="c,d,e,g,o,q,cent,ccedilla,egrave,eacute,ecircumflex,edieresis,eth,ograve,oacute,ocircumflex,otilde,odieresis,oslash,oe,afii10066,afii10070,afii10080,afii10083,afii10086,afii10071,afii10101" 	k="123" />
<hkern g1="V,afii10062,afii10037" 	g2="x,afii10072,afii10087" 	k="61" />
<hkern g1="V,afii10062,afii10037" 	g2="s,afii10073,afii10095,afii10102" 	k="123" />
<hkern g1="V,afii10062,afii10037" 	g2="m,n,p,r,z,ntilde,afii10067,afii10074,afii10076,afii10078,afii10079,afii10081,afii10082,afii10088,afii10090,afii10091,afii10093,afii10094,afii10096,afii10097,afii10100,afii10107,afii10193,afii10098" 	k="143" />
<hkern g1="W" 	g2="C,G,O,Q,afii10053,afii10032,afii10035,afii10038" 	k="41" />
<hkern g1="W" 	g2="J,afii10057" 	k="164" />
<hkern g1="W" 	g2="f" 	k="41" />
<hkern g1="W" 	g2="u,ugrave,uacute,ucircumflex,udieresis" 	k="61" />
<hkern g1="W" 	g2="t" 	k="41" />
<hkern g1="W" 	g2="v" 	k="20" />
<hkern g1="W" 	g2="y,yacute,ydieresis,afii10085,afii10110" 	k="20" />
<hkern g1="W" 	g2="afii10069,afii10077,afii10106" 	k="102" />
<hkern g1="W" 	g2="A,afii10058,afii10017,afii10021,afii10029" 	k="82" />
<hkern g1="W" 	g2="comma,period,quotesinglbase,quotedblbase,ellipsis" 	k="123" />
<hkern g1="W" 	g2="ampersand" 	k="41" />
<hkern g1="W" 	g2="hyphen,endash,emdash" 	k="82" />
<hkern g1="W" 	g2="a,agrave,aacute,acircumflex,atilde,adieresis,aring,ae,afii10065" 	k="82" />
<hkern g1="W" 	g2="c,d,e,g,o,q,cent,ccedilla,egrave,eacute,ecircumflex,edieresis,eth,ograve,oacute,ocircumflex,otilde,odieresis,oslash,oe,afii10066,afii10070,afii10080,afii10083,afii10086,afii10071,afii10101" 	k="82" />
<hkern g1="W" 	g2="x,afii10072,afii10087" 	k="61" />
<hkern g1="W" 	g2="s,afii10073,afii10095,afii10102" 	k="82" />
<hkern g1="W" 	g2="m,n,p,r,z,ntilde,afii10067,afii10074,afii10076,afii10078,afii10079,afii10081,afii10082,afii10088,afii10090,afii10091,afii10093,afii10094,afii10096,afii10097,afii10100,afii10107,afii10193,afii10098" 	k="61" />
<hkern g1="Y" 	g2="C,G,O,Q,afii10053,afii10032,afii10035,afii10038" 	k="82" />
<hkern g1="Y" 	g2="J,afii10057" 	k="246" />
<hkern g1="Y" 	g2="f" 	k="143" />
<hkern g1="Y" 	g2="u,ugrave,uacute,ucircumflex,udieresis" 	k="184" />
<hkern g1="Y" 	g2="t" 	k="82" />
<hkern g1="Y" 	g2="w,afii10089" 	k="123" />
<hkern g1="Y" 	g2="v" 	k="123" />
<hkern g1="Y" 	g2="y,yacute,ydieresis,afii10085,afii10110" 	k="123" />
<hkern g1="Y" 	g2="afii10069,afii10077,afii10106" 	k="184" />
<hkern g1="Y" 	g2="A,afii10058,afii10017,afii10021,afii10029" 	k="143" />
<hkern g1="Y" 	g2="comma,period,quotesinglbase,quotedblbase,ellipsis" 	k="184" />
<hkern g1="Y" 	g2="ampersand" 	k="123" />
<hkern g1="Y" 	g2="hyphen,endash,emdash" 	k="266" />
<hkern g1="Y" 	g2="a,agrave,aacute,acircumflex,atilde,adieresis,aring,ae,afii10065" 	k="205" />
<hkern g1="Y" 	g2="c,d,e,g,o,q,cent,ccedilla,egrave,eacute,ecircumflex,edieresis,eth,ograve,oacute,ocircumflex,otilde,odieresis,oslash,oe,afii10066,afii10070,afii10080,afii10083,afii10086,afii10071,afii10101" 	k="246" />
<hkern g1="Y" 	g2="x,afii10072,afii10087" 	k="164" />
<hkern g1="Y" 	g2="s,afii10073,afii10095,afii10102" 	k="205" />
<hkern g1="Y" 	g2="colon,semicolon" 	k="164" />
<hkern g1="Y" 	g2="S,afii10054,afii10025" 	k="41" />
<hkern g1="Y" 	g2="m,n,p,r,z,ntilde,afii10067,afii10074,afii10076,afii10078,afii10079,afii10081,afii10082,afii10088,afii10090,afii10091,afii10093,afii10094,afii10096,afii10097,afii10100,afii10107,afii10193,afii10098" 	k="184" />
<hkern g1="Z" 	g2="C,G,O,Q,afii10053,afii10032,afii10035,afii10038" 	k="20" />
<hkern g1="a,h,m,n,agrave,aacute,acircumflex,atilde,adieresis,aring,ntilde,afii10065" 	g2="question" 	k="102" />
<hkern g1="a,h,m,n,agrave,aacute,acircumflex,atilde,adieresis,aring,ntilde,afii10065" 	g2="quotedbl,quotesingle,registered,quoteleft,quoteright,quotedblleft,quotedblright,trademark" 	k="41" />
<hkern g1="a,h,m,n,agrave,aacute,acircumflex,atilde,adieresis,aring,ntilde,afii10065" 	g2="T,afii10051,afii10060,afii10036,afii10041,afii10044" 	k="164" />
<hkern g1="a,h,m,n,agrave,aacute,acircumflex,atilde,adieresis,aring,ntilde,afii10065" 	g2="W" 	k="102" />
<hkern g1="a,h,m,n,agrave,aacute,acircumflex,atilde,adieresis,aring,ntilde,afii10065" 	g2="V" 	k="164" />
<hkern g1="a,h,m,n,agrave,aacute,acircumflex,atilde,adieresis,aring,ntilde,afii10065" 	g2="Y" 	k="225" />
<hkern g1="ampersand" 	g2="afii10084,afii10092" 	k="102" />
<hkern g1="ampersand" 	g2="T,afii10051,afii10060,afii10036,afii10041,afii10044" 	k="123" />
<hkern g1="ampersand" 	g2="W" 	k="41" />
<hkern g1="ampersand" 	g2="V" 	k="102" />
<hkern g1="ampersand" 	g2="Y" 	k="143" />
<hkern g1="asterisk" 	g2="J,afii10057" 	k="266" />
<hkern g1="asterisk" 	g2="afii10069,afii10077,afii10106" 	k="102" />
<hkern g1="asterisk" 	g2="A,afii10058,afii10017,afii10021,afii10029" 	k="164" />
<hkern g1="b,o,p,ograve,oacute,ocircumflex,otilde,odieresis,oslash,thorn,afii10080,afii10082,afii10086,afii10095,afii10096" 	g2="question" 	k="123" />
<hkern g1="b,o,p,ograve,oacute,ocircumflex,otilde,odieresis,oslash,thorn,afii10080,afii10082,afii10086,afii10095,afii10096" 	g2="quotedbl,quotesingle,registered,quoteleft,quoteright,quotedblleft,quotedblright,trademark" 	k="20" />
<hkern g1="b,o,p,ograve,oacute,ocircumflex,otilde,odieresis,oslash,thorn,afii10080,afii10082,afii10086,afii10095,afii10096" 	g2="T,afii10051,afii10060,afii10036,afii10041,afii10044" 	k="164" />
<hkern g1="b,o,p,ograve,oacute,ocircumflex,otilde,odieresis,oslash,thorn,afii10080,afii10082,afii10086,afii10095,afii10096" 	g2="W" 	k="82" />
<hkern g1="b,o,p,ograve,oacute,ocircumflex,otilde,odieresis,oslash,thorn,afii10080,afii10082,afii10086,afii10095,afii10096" 	g2="V" 	k="123" />
<hkern g1="b,o,p,ograve,oacute,ocircumflex,otilde,odieresis,oslash,thorn,afii10080,afii10082,afii10086,afii10095,afii10096" 	g2="Y" 	k="225" />
<hkern g1="b,o,p,ograve,oacute,ocircumflex,otilde,odieresis,oslash,thorn,afii10080,afii10082,afii10086,afii10095,afii10096" 	g2="x,afii10072,afii10087" 	k="61" />
<hkern g1="c,cent,ccedilla,afii10083,afii10101" 	g2="question" 	k="61" />
<hkern g1="c,cent,ccedilla,afii10083,afii10101" 	g2="quotedbl,quotesingle,registered,quoteleft,quoteright,quotedblleft,quotedblright,trademark" 	k="20" />
<hkern g1="c,cent,ccedilla,afii10083,afii10101" 	g2="T,afii10051,afii10060,afii10036,afii10041,afii10044" 	k="123" />
<hkern g1="c,cent,ccedilla,afii10083,afii10101" 	g2="W" 	k="61" />
<hkern g1="c,cent,ccedilla,afii10083,afii10101" 	g2="V" 	k="102" />
<hkern g1="c,cent,ccedilla,afii10083,afii10101" 	g2="Y" 	k="143" />
<hkern g1="colon,semicolon" 	g2="T,afii10051,afii10060,afii10036,afii10041,afii10044" 	k="102" />
<hkern g1="colon,semicolon" 	g2="Y" 	k="164" />
<hkern g1="e,ae,egrave,eacute,ecircumflex,edieresis,oe,afii10070,afii10071" 	g2="question" 	k="102" />
<hkern g1="e,ae,egrave,eacute,ecircumflex,edieresis,oe,afii10070,afii10071" 	g2="quotedbl,quotesingle,registered,quoteleft,quoteright,quotedblleft,quotedblright,trademark" 	k="20" />
<hkern g1="e,ae,egrave,eacute,ecircumflex,edieresis,oe,afii10070,afii10071" 	g2="asterisk" 	k="20" />
<hkern g1="e,ae,egrave,eacute,ecircumflex,edieresis,oe,afii10070,afii10071" 	g2="T,afii10051,afii10060,afii10036,afii10041,afii10044" 	k="164" />
<hkern g1="e,ae,egrave,eacute,ecircumflex,edieresis,oe,afii10070,afii10071" 	g2="W" 	k="82" />
<hkern g1="e,ae,egrave,eacute,ecircumflex,edieresis,oe,afii10070,afii10071" 	g2="V" 	k="123" />
<hkern g1="e,ae,egrave,eacute,ecircumflex,edieresis,oe,afii10070,afii10071" 	g2="Y" 	k="225" />
<hkern g1="f" 	g2="question" 	k="-102" />
<hkern g1="f" 	g2="quotedbl,quotesingle,registered,quoteleft,quoteright,quotedblleft,quotedblright,trademark" 	k="-123" />
<hkern g1="f" 	g2="asterisk" 	k="-123" />
<hkern g1="f" 	g2="U" 	k="-82" />
<hkern g1="f" 	g2="T,afii10051,afii10060,afii10036,afii10041,afii10044" 	k="-82" />
<hkern g1="f" 	g2="W" 	k="-143" />
<hkern g1="f" 	g2="V" 	k="-143" />
<hkern g1="f" 	g2="Y" 	k="-143" />
<hkern g1="f" 	g2="Z" 	k="-82" />
<hkern g1="f" 	g2="comma,period,quotesinglbase,quotedblbase,ellipsis" 	k="102" />
<hkern g1="f" 	g2="X,afii10062,afii10024,afii10037,afii10039" 	k="-82" />
<hkern g1="f" 	g2="ampersand" 	k="20" />
<hkern g1="f" 	g2="S,afii10054,afii10025" 	k="-61" />
<hkern g1="f" 	g2="exclam,B,D,E,F,H,I,K,L,M,N,P,R" 	k="-82" />
<hkern g1="f" 	g2="parenright,bracketright,braceright" 	k="-123" />
<hkern g1="g,j,q,afii10105" 	g2="question" 	k="61" />
<hkern g1="g,j,q,afii10105" 	g2="T,afii10051,afii10060,afii10036,afii10041,afii10044" 	k="102" />
<hkern g1="g,j,q,afii10105" 	g2="W" 	k="61" />
<hkern g1="g,j,q,afii10105" 	g2="V" 	k="143" />
<hkern g1="g,j,q,afii10105" 	g2="Y" 	k="184" />
<hkern g1="g,j,q,afii10105" 	g2="j,afii10105" 	k="-123" />
<hkern g1="hyphen,endash,emdash" 	g2="W" 	k="82" />
<hkern g1="hyphen,endash,emdash" 	g2="V" 	k="123" />
<hkern g1="hyphen,endash,emdash" 	g2="Y" 	k="266" />
<hkern g1="hyphen,endash,emdash" 	g2="X,afii10062,afii10024,afii10037,afii10039" 	k="102" />
<hkern g1="k,afii10072,afii10076,afii10109" 	g2="T,afii10051,afii10060,afii10036,afii10041,afii10044" 	k="41" />
<hkern g1="k,afii10072,afii10076,afii10109" 	g2="W" 	k="61" />
<hkern g1="k,afii10072,afii10076,afii10109" 	g2="V" 	k="61" />
<hkern g1="k,afii10072,afii10076,afii10109" 	g2="Y" 	k="164" />
<hkern g1="k,afii10072,afii10076,afii10109" 	g2="hyphen,endash,emdash" 	k="41" />
<hkern g1="k,afii10072,afii10076,afii10109" 	g2="c,d,e,g,o,q,cent,ccedilla,egrave,eacute,ecircumflex,edieresis,eth,ograve,oacute,ocircumflex,otilde,odieresis,oslash,oe,afii10066,afii10070,afii10080,afii10083,afii10086,afii10071,afii10101" 	k="20" />
<hkern g1="comma,period,quotesinglbase,quotedblbase,ellipsis" 	g2="quotedbl,quotesingle,registered,quoteleft,quoteright,quotedblleft,quotedblright,trademark" 	k="184" />
<hkern g1="comma,period,quotesinglbase,quotedblbase,ellipsis" 	g2="afii10084,afii10092" 	k="123" />
<hkern g1="comma,period,quotesinglbase,quotedblbase,ellipsis" 	g2="U" 	k="61" />
<hkern g1="comma,period,quotesinglbase,quotedblbase,ellipsis" 	g2="T,afii10051,afii10060,afii10036,afii10041,afii10044" 	k="205" />
<hkern g1="comma,period,quotesinglbase,quotedblbase,ellipsis" 	g2="W" 	k="123" />
<hkern g1="comma,period,quotesinglbase,quotedblbase,ellipsis" 	g2="V" 	k="164" />
<hkern g1="comma,period,quotesinglbase,quotedblbase,ellipsis" 	g2="Y" 	k="184" />
<hkern g1="comma,period,quotesinglbase,quotedblbase,ellipsis" 	g2="f" 	k="61" />
<hkern g1="comma,period,quotesinglbase,quotedblbase,ellipsis" 	g2="t" 	k="61" />
<hkern g1="comma,period,quotesinglbase,quotedblbase,ellipsis" 	g2="w,afii10089" 	k="61" />
<hkern g1="comma,period,quotesinglbase,quotedblbase,ellipsis" 	g2="v" 	k="123" />
<hkern g1="comma,period,quotesinglbase,quotedblbase,ellipsis" 	g2="y,yacute,ydieresis,afii10085,afii10110" 	k="102" />
<hkern g1="comma,period,quotesinglbase,quotedblbase,ellipsis" 	g2="j,afii10105" 	k="-82" />
<hkern g1="comma,period,quotesinglbase,quotedblbase,ellipsis" 	g2="seven" 	k="164" />
<hkern g1="comma,period,quotesinglbase,quotedblbase,ellipsis" 	g2="one" 	k="246" />
<hkern g1="comma,period,quotesinglbase,quotedblbase,ellipsis" 	g2="zero,six" 	k="20" />
<hkern g1="quotedbl,quotesingle,quoteleft,quoteright,quotedblleft,quotedblright" 	g2="C,G,O,Q,afii10053,afii10032,afii10035,afii10038" 	k="20" />
<hkern g1="quotedbl,quotesingle,quoteleft,quoteright,quotedblleft,quotedblright" 	g2="J,afii10057" 	k="246" />
<hkern g1="quotedbl,quotesingle,quoteleft,quoteright,quotedblleft,quotedblright" 	g2="afii10069,afii10077,afii10106" 	k="164" />
<hkern g1="quotedbl,quotesingle,quoteleft,quoteright,quotedblleft,quotedblright" 	g2="A,afii10058,afii10017,afii10021,afii10029" 	k="184" />
<hkern g1="quotedbl,quotesingle,quoteleft,quoteright,quotedblleft,quotedblright" 	g2="comma,period,quotesinglbase,quotedblbase,ellipsis" 	k="184" />
<hkern g1="quotedbl,quotesingle,quoteleft,quoteright,quotedblleft,quotedblright" 	g2="s,afii10073,afii10095,afii10102" 	k="61" />
<hkern g1="r" 	g2="T,afii10051,afii10060,afii10036,afii10041,afii10044" 	k="41" />
<hkern g1="r" 	g2="W" 	k="41" />
<hkern g1="r" 	g2="V" 	k="61" />
<hkern g1="r" 	g2="Y" 	k="102" />
<hkern g1="r" 	g2="comma,period,quotesinglbase,quotedblbase,ellipsis" 	k="184" />
<hkern g1="r" 	g2="X,afii10062,afii10024,afii10037,afii10039" 	k="61" />
<hkern g1="s,afii10102" 	g2="question" 	k="102" />
<hkern g1="s,afii10102" 	g2="quotedbl,quotesingle,registered,quoteleft,quoteright,quotedblleft,quotedblright,trademark" 	k="41" />
<hkern g1="s,afii10102" 	g2="T,afii10051,afii10060,afii10036,afii10041,afii10044" 	k="123" />
<hkern g1="s,afii10102" 	g2="W" 	k="123" />
<hkern g1="s,afii10102" 	g2="V" 	k="102" />
<hkern g1="s,afii10102" 	g2="Y" 	k="205" />
<hkern g1="s,afii10102" 	g2="X,afii10062,afii10024,afii10037,afii10039" 	k="20" />
<hkern g1="t" 	g2="T,afii10051,afii10060,afii10036,afii10041,afii10044" 	k="20" />
<hkern g1="t" 	g2="W" 	k="41" />
<hkern g1="t" 	g2="V" 	k="82" />
<hkern g1="t" 	g2="Y" 	k="82" />
<hkern g1="u,z,ugrave,uacute,ucircumflex,udieresis,afii10069,afii10074,afii10077,afii10078,afii10079,afii10081,afii10088,afii10089,afii10090,afii10091,afii10093,afii10097,afii10193" 	g2="question" 	k="61" />
<hkern g1="u,z,ugrave,uacute,ucircumflex,udieresis,afii10069,afii10074,afii10077,afii10078,afii10079,afii10081,afii10088,afii10089,afii10090,afii10091,afii10093,afii10097,afii10193" 	g2="T,afii10051,afii10060,afii10036,afii10041,afii10044" 	k="102" />
<hkern g1="u,z,ugrave,uacute,ucircumflex,udieresis,afii10069,afii10074,afii10077,afii10078,afii10079,afii10081,afii10088,afii10089,afii10090,afii10091,afii10093,afii10097,afii10193" 	g2="W" 	k="61" />
<hkern g1="u,z,ugrave,uacute,ucircumflex,udieresis,afii10069,afii10074,afii10077,afii10078,afii10079,afii10081,afii10088,afii10089,afii10090,afii10091,afii10093,afii10097,afii10193" 	g2="V" 	k="143" />
<hkern g1="u,z,ugrave,uacute,ucircumflex,udieresis,afii10069,afii10074,afii10077,afii10078,afii10079,afii10081,afii10088,afii10089,afii10090,afii10091,afii10093,afii10097,afii10193" 	g2="Y" 	k="184" />
<hkern g1="v" 	g2="W" 	k="20" />
<hkern g1="v" 	g2="V" 	k="41" />
<hkern g1="v" 	g2="Y" 	k="123" />
<hkern g1="v" 	g2="A,afii10058,afii10017,afii10021,afii10029" 	k="41" />
<hkern g1="v" 	g2="comma,period,quotesinglbase,quotedblbase,ellipsis" 	k="123" />
<hkern g1="v" 	g2="X,afii10062,afii10024,afii10037,afii10039" 	k="61" />
<hkern g1="w" 	g2="V" 	k="41" />
<hkern g1="w" 	g2="Y" 	k="123" />
<hkern g1="w" 	g2="A,afii10058,afii10017,afii10021,afii10029" 	k="20" />
<hkern g1="w" 	g2="comma,period,quotesinglbase,quotedblbase,ellipsis" 	k="61" />
<hkern g1="w" 	g2="X,afii10062,afii10024,afii10037,afii10039" 	k="61" />
<hkern g1="y,yacute,ydieresis,afii10085,afii10110" 	g2="question" 	k="20" />
<hkern g1="y,yacute,ydieresis,afii10085,afii10110" 	g2="W" 	k="20" />
<hkern g1="y,yacute,ydieresis,afii10085,afii10110" 	g2="V" 	k="41" />
<hkern g1="y,yacute,ydieresis,afii10085,afii10110" 	g2="Y" 	k="123" />
<hkern g1="y,yacute,ydieresis,afii10085,afii10110" 	g2="A,afii10058,afii10017,afii10021,afii10029" 	k="41" />
<hkern g1="y,yacute,ydieresis,afii10085,afii10110" 	g2="comma,period,quotesinglbase,quotedblbase,ellipsis" 	k="102" />
<hkern g1="y,yacute,ydieresis,afii10085,afii10110" 	g2="X,afii10062,afii10024,afii10037,afii10039" 	k="61" />
<hkern g1="X,afii10039" 	g2="C,G,O,Q,afii10053,afii10032,afii10035,afii10038" 	k="61" />
<hkern g1="X,afii10039" 	g2="f" 	k="61" />
<hkern g1="X,afii10039" 	g2="t" 	k="61" />
<hkern g1="X,afii10039" 	g2="w,afii10089" 	k="61" />
<hkern g1="X,afii10039" 	g2="v" 	k="61" />
<hkern g1="X,afii10039" 	g2="y,yacute,ydieresis,afii10085,afii10110" 	k="61" />
<hkern g1="X,afii10039" 	g2="hyphen,endash,emdash" 	k="102" />
<hkern g1="zero,nine" 	g2="comma,period,quotesinglbase,quotedblbase,ellipsis" 	k="20" />
<hkern g1="seven" 	g2="comma,period,quotesinglbase,quotedblbase,ellipsis" 	k="184" />
<hkern g1="x,afii10087" 	g2="T,afii10051,afii10060,afii10036,afii10041,afii10044" 	k="20" />
<hkern g1="x,afii10087" 	g2="W" 	k="61" />
<hkern g1="x,afii10087" 	g2="V" 	k="61" />
<hkern g1="x,afii10087" 	g2="Y" 	k="164" />
<hkern g1="x,afii10087" 	g2="c,d,e,g,o,q,cent,ccedilla,egrave,eacute,ecircumflex,edieresis,eth,ograve,oacute,ocircumflex,otilde,odieresis,oslash,oe,afii10066,afii10070,afii10080,afii10083,afii10086,afii10071,afii10101" 	k="61" />
<hkern g1="parenleft,bracketleft,braceleft" 	g2="j,afii10105" 	k="-225" />
</font>
</defs></svg> 